%!PS-Adobe-2.0 EPSF-2.0
%%Title: /home/david/Diagram1.dia
%%Creator: Dia v0.97.3
%%CreationDate: Thu Nov  5 13:52:44 2015
%%For: david
%%Orientation: Portrait
%%Magnification: 1.0000
%%BoundingBox: 0 0 287 287
%%BeginSetup
%%EndSetup
%%EndComments
%%BeginProlog
[ /.notdef /.notdef /.notdef /.notdef /.notdef /.notdef /.notdef /.notdef /.notdef /.notdef
/.notdef /.notdef /.notdef /.notdef /.notdef /.notdef /.notdef /.notdef /.notdef /.notdef
/.notdef /.notdef /.notdef /.notdef /.notdef /.notdef /.notdef /.notdef /.notdef /.notdef
/.notdef /.notdef /space /exclam /quotedbl /numbersign /dollar /percent /ampersand /quoteright
/parenleft /parenright /asterisk /plus /comma /hyphen /period /slash /zero /one
/two /three /four /five /six /seven /eight /nine /colon /semicolon
/less /equal /greater /question /at /A /B /C /D /E
/F /G /H /I /J /K /L /M /N /O
/P /Q /R /S /T /U /V /W /X /Y
/Z /bracketleft /backslash /bracketright /asciicircum /underscore /quoteleft /a /b /c
/d /e /f /g /h /i /j /k /l /m
/n /o /p /q /r /s /t /u /v /w
/x /y /z /braceleft /bar /braceright /asciitilde /.notdef /.notdef /.notdef
/.notdef /.notdef /.notdef /.notdef /.notdef /.notdef /.notdef /.notdef /.notdef /.notdef
/.notdef /.notdef /.notdef /.notdef /.notdef /.notdef /.notdef /.notdef /.notdef /.notdef
/.notdef /.notdef /.notdef /.notdef /.notdef /.notdef /.notdef /.notdef /.notdef /.notdef
/space /exclamdown /cent /sterling /currency /yen /brokenbar /section /dieresis /copyright
/ordfeminine /guillemotleft /logicalnot /hyphen /registered /macron /degree /plusminus /twosuperior /threesuperior
/acute /mu /paragraph /periodcentered /cedilla /onesuperior /ordmasculine /guillemotright /onequarter /onehalf
/threequarters /questiondown /Agrave /Aacute /Acircumflex /Atilde /Adieresis /Aring /AE /Ccedilla
/Egrave /Eacute /Ecircumflex /Edieresis /Igrave /Iacute /Icircumflex /Idieresis /Eth /Ntilde
/Ograve /Oacute /Ocircumflex /Otilde /Odieresis /multiply /Oslash /Ugrave /Uacute /Ucircumflex
/Udieresis /Yacute /Thorn /germandbls /agrave /aacute /acircumflex /atilde /adieresis /aring
/ae /ccedilla /egrave /eacute /ecircumflex /edieresis /igrave /iacute /icircumflex /idieresis
/eth /ntilde /ograve /oacute /ocircumflex /otilde /odieresis /divide /oslash /ugrave
/uacute /ucircumflex /udieresis /yacute /thorn /ydieresis] /isolatin1encoding exch def
/cp {closepath} bind def
/c {curveto} bind def
/f {fill} bind def
/a {arc} bind def
/ef {eofill} bind def
/ex {exch} bind def
/gr {grestore} bind def
/gs {gsave} bind def
/sa {save} bind def
/rs {restore} bind def
/l {lineto} bind def
/m {moveto} bind def
/rm {rmoveto} bind def
/n {newpath} bind def
/s {stroke} bind def
/sh {show} bind def
/slc {setlinecap} bind def
/slj {setlinejoin} bind def
/slw {setlinewidth} bind def
/srgb {setrgbcolor} bind def
/rot {rotate} bind def
/sc {scale} bind def
/sd {setdash} bind def
/ff {findfont} bind def
/sf {setfont} bind def
/scf {scalefont} bind def
/sw {stringwidth pop} bind def
/tr {translate} bind def

/ellipsedict 8 dict def
ellipsedict /mtrx matrix put
/ellipse
{ ellipsedict begin
   /endangle exch def
   /startangle exch def
   /yrad exch def
   /xrad exch def
   /y exch def
   /x exch def   /savematrix mtrx currentmatrix def
   x y tr xrad yrad sc
   0 0 1 startangle endangle arc
   savematrix setmatrix
   end
} def

/mergeprocs {
dup length
3 -1 roll
dup
length
dup
5 1 roll
3 -1 roll
add
array cvx
dup
3 -1 roll
0 exch
putinterval
dup
4 2 roll
putinterval
} bind def
/Times-Roman-latin1
    /Times-Roman findfont
    dup length dict begin
	{1 index /FID ne {def} {pop pop} ifelse} forall
	/Encoding isolatin1encoding def
    currentdict end
definefont pop
/Times-Italic-latin1
    /Times-Italic findfont
    dup length dict begin
	{1 index /FID ne {def} {pop pop} ifelse} forall
	/Encoding isolatin1encoding def
    currentdict end
definefont pop
/Times-Bold-latin1
    /Times-Bold findfont
    dup length dict begin
	{1 index /FID ne {def} {pop pop} ifelse} forall
	/Encoding isolatin1encoding def
    currentdict end
definefont pop
/Times-BoldItalic-latin1
    /Times-BoldItalic findfont
    dup length dict begin
	{1 index /FID ne {def} {pop pop} ifelse} forall
	/Encoding isolatin1encoding def
    currentdict end
definefont pop
/AvantGarde-Gothic-latin1
    /AvantGarde-Gothic findfont
    dup length dict begin
	{1 index /FID ne {def} {pop pop} ifelse} forall
	/Encoding isolatin1encoding def
    currentdict end
definefont pop
/AvantGarde-BookOblique-latin1
    /AvantGarde-BookOblique findfont
    dup length dict begin
	{1 index /FID ne {def} {pop pop} ifelse} forall
	/Encoding isolatin1encoding def
    currentdict end
definefont pop
/AvantGarde-Demi-latin1
    /AvantGarde-Demi findfont
    dup length dict begin
	{1 index /FID ne {def} {pop pop} ifelse} forall
	/Encoding isolatin1encoding def
    currentdict end
definefont pop
/AvantGarde-DemiOblique-latin1
    /AvantGarde-DemiOblique findfont
    dup length dict begin
	{1 index /FID ne {def} {pop pop} ifelse} forall
	/Encoding isolatin1encoding def
    currentdict end
definefont pop
/Bookman-Light-latin1
    /Bookman-Light findfont
    dup length dict begin
	{1 index /FID ne {def} {pop pop} ifelse} forall
	/Encoding isolatin1encoding def
    currentdict end
definefont pop
/Bookman-LightItalic-latin1
    /Bookman-LightItalic findfont
    dup length dict begin
	{1 index /FID ne {def} {pop pop} ifelse} forall
	/Encoding isolatin1encoding def
    currentdict end
definefont pop
/Bookman-Demi-latin1
    /Bookman-Demi findfont
    dup length dict begin
	{1 index /FID ne {def} {pop pop} ifelse} forall
	/Encoding isolatin1encoding def
    currentdict end
definefont pop
/Bookman-DemiItalic-latin1
    /Bookman-DemiItalic findfont
    dup length dict begin
	{1 index /FID ne {def} {pop pop} ifelse} forall
	/Encoding isolatin1encoding def
    currentdict end
definefont pop
/Courier-latin1
    /Courier findfont
    dup length dict begin
	{1 index /FID ne {def} {pop pop} ifelse} forall
	/Encoding isolatin1encoding def
    currentdict end
definefont pop
/Courier-Oblique-latin1
    /Courier-Oblique findfont
    dup length dict begin
	{1 index /FID ne {def} {pop pop} ifelse} forall
	/Encoding isolatin1encoding def
    currentdict end
definefont pop
/Courier-Bold-latin1
    /Courier-Bold findfont
    dup length dict begin
	{1 index /FID ne {def} {pop pop} ifelse} forall
	/Encoding isolatin1encoding def
    currentdict end
definefont pop
/Courier-BoldOblique-latin1
    /Courier-BoldOblique findfont
    dup length dict begin
	{1 index /FID ne {def} {pop pop} ifelse} forall
	/Encoding isolatin1encoding def
    currentdict end
definefont pop
/Helvetica-latin1
    /Helvetica findfont
    dup length dict begin
	{1 index /FID ne {def} {pop pop} ifelse} forall
	/Encoding isolatin1encoding def
    currentdict end
definefont pop
/Helvetica-Oblique-latin1
    /Helvetica-Oblique findfont
    dup length dict begin
	{1 index /FID ne {def} {pop pop} ifelse} forall
	/Encoding isolatin1encoding def
    currentdict end
definefont pop
/Helvetica-Bold-latin1
    /Helvetica-Bold findfont
    dup length dict begin
	{1 index /FID ne {def} {pop pop} ifelse} forall
	/Encoding isolatin1encoding def
    currentdict end
definefont pop
/Helvetica-BoldOblique-latin1
    /Helvetica-BoldOblique findfont
    dup length dict begin
	{1 index /FID ne {def} {pop pop} ifelse} forall
	/Encoding isolatin1encoding def
    currentdict end
definefont pop
/Helvetica-Narrow-latin1
    /Helvetica-Narrow findfont
    dup length dict begin
	{1 index /FID ne {def} {pop pop} ifelse} forall
	/Encoding isolatin1encoding def
    currentdict end
definefont pop
/Helvetica-Narrow-Oblique-latin1
    /Helvetica-Narrow-Oblique findfont
    dup length dict begin
	{1 index /FID ne {def} {pop pop} ifelse} forall
	/Encoding isolatin1encoding def
    currentdict end
definefont pop
/Helvetica-Narrow-Bold-latin1
    /Helvetica-Narrow-Bold findfont
    dup length dict begin
	{1 index /FID ne {def} {pop pop} ifelse} forall
	/Encoding isolatin1encoding def
    currentdict end
definefont pop
/Helvetica-Narrow-BoldOblique-latin1
    /Helvetica-Narrow-BoldOblique findfont
    dup length dict begin
	{1 index /FID ne {def} {pop pop} ifelse} forall
	/Encoding isolatin1encoding def
    currentdict end
definefont pop
/NewCenturySchlbk-Roman-latin1
    /NewCenturySchlbk-Roman findfont
    dup length dict begin
	{1 index /FID ne {def} {pop pop} ifelse} forall
	/Encoding isolatin1encoding def
    currentdict end
definefont pop
/NewCenturySchlbk-Italic-latin1
    /NewCenturySchlbk-Italic findfont
    dup length dict begin
	{1 index /FID ne {def} {pop pop} ifelse} forall
	/Encoding isolatin1encoding def
    currentdict end
definefont pop
/NewCenturySchlbk-Bold-latin1
    /NewCenturySchlbk-Bold findfont
    dup length dict begin
	{1 index /FID ne {def} {pop pop} ifelse} forall
	/Encoding isolatin1encoding def
    currentdict end
definefont pop
/NewCenturySchlbk-BoldItalic-latin1
    /NewCenturySchlbk-BoldItalic findfont
    dup length dict begin
	{1 index /FID ne {def} {pop pop} ifelse} forall
	/Encoding isolatin1encoding def
    currentdict end
definefont pop
/Palatino-Roman-latin1
    /Palatino-Roman findfont
    dup length dict begin
	{1 index /FID ne {def} {pop pop} ifelse} forall
	/Encoding isolatin1encoding def
    currentdict end
definefont pop
/Palatino-Italic-latin1
    /Palatino-Italic findfont
    dup length dict begin
	{1 index /FID ne {def} {pop pop} ifelse} forall
	/Encoding isolatin1encoding def
    currentdict end
definefont pop
/Palatino-Bold-latin1
    /Palatino-Bold findfont
    dup length dict begin
	{1 index /FID ne {def} {pop pop} ifelse} forall
	/Encoding isolatin1encoding def
    currentdict end
definefont pop
/Palatino-BoldItalic-latin1
    /Palatino-BoldItalic findfont
    dup length dict begin
	{1 index /FID ne {def} {pop pop} ifelse} forall
	/Encoding isolatin1encoding def
    currentdict end
definefont pop
/Symbol-latin1
    /Symbol findfont
definefont pop
/ZapfChancery-MediumItalic-latin1
    /ZapfChancery-MediumItalic findfont
    dup length dict begin
	{1 index /FID ne {def} {pop pop} ifelse} forall
	/Encoding isolatin1encoding def
    currentdict end
definefont pop
/ZapfDingbats-latin1
    /ZapfDingbats findfont
    dup length dict begin
	{1 index /FID ne {def} {pop pop} ifelse} forall
	/Encoding isolatin1encoding def
    currentdict end
definefont pop
28.346000 -28.346000 scale
-16.950000 -21.050000 translate
%%EndProlog


0.100000 slw
[] 0 sd
[] 0 sd
0 slj
0.000000 0.000000 0.000000 srgb
n 17.000000 11.000000 m 17.000000 12.000000 l 18.000000 12.000000 l 18.000000 11.000000 l f
n 17.000000 11.000000 m 17.000000 12.000000 l 18.000000 12.000000 l 18.000000 11.000000 l cp s
0.100000 slw
[] 0 sd
[] 0 sd
0 slj
n 18.000000 11.000000 m 18.000000 12.000000 l 19.000000 12.000000 l 19.000000 11.000000 l f
n 18.000000 11.000000 m 18.000000 12.000000 l 19.000000 12.000000 l 19.000000 11.000000 l cp s
0.100000 slw
[] 0 sd
[] 0 sd
0 slj
n 19.000000 11.000000 m 19.000000 12.000000 l 20.000000 12.000000 l 20.000000 11.000000 l f
n 19.000000 11.000000 m 19.000000 12.000000 l 20.000000 12.000000 l 20.000000 11.000000 l cp s
0.100000 slw
[] 0 sd
[] 0 sd
0 slj
n 20.000000 11.000000 m 20.000000 12.000000 l 21.000000 12.000000 l 21.000000 11.000000 l f
n 20.000000 11.000000 m 20.000000 12.000000 l 21.000000 12.000000 l 21.000000 11.000000 l cp s
0.100000 slw
[] 0 sd
[] 0 sd
0 slj
n 21.000000 11.000000 m 21.000000 12.000000 l 22.000000 12.000000 l 22.000000 11.000000 l f
n 21.000000 11.000000 m 21.000000 12.000000 l 22.000000 12.000000 l 22.000000 11.000000 l cp s
0.100000 slw
[] 0 sd
[] 0 sd
0 slj
n 22.000000 11.000000 m 22.000000 12.000000 l 23.000000 12.000000 l 23.000000 11.000000 l f
n 22.000000 11.000000 m 22.000000 12.000000 l 23.000000 12.000000 l 23.000000 11.000000 l cp s
0.100000 slw
[] 0 sd
[] 0 sd
0 slj
n 23.000000 11.000000 m 23.000000 12.000000 l 24.000000 12.000000 l 24.000000 11.000000 l f
n 23.000000 11.000000 m 23.000000 12.000000 l 24.000000 12.000000 l 24.000000 11.000000 l cp s
0.100000 slw
[] 0 sd
[] 0 sd
0 slj
n 24.000000 11.000000 m 24.000000 12.000000 l 25.000000 12.000000 l 25.000000 11.000000 l f
n 24.000000 11.000000 m 24.000000 12.000000 l 25.000000 12.000000 l 25.000000 11.000000 l cp s
0.100000 slw
[] 0 sd
[] 0 sd
0 slj
n 25.000000 11.000000 m 25.000000 12.000000 l 26.000000 12.000000 l 26.000000 11.000000 l f
n 25.000000 11.000000 m 25.000000 12.000000 l 26.000000 12.000000 l 26.000000 11.000000 l cp s
0.100000 slw
[] 0 sd
[] 0 sd
0 slj
n 26.000000 11.000000 m 26.000000 12.000000 l 27.000000 12.000000 l 27.000000 11.000000 l f
n 26.000000 11.000000 m 26.000000 12.000000 l 27.000000 12.000000 l 27.000000 11.000000 l cp s
0.100000 slw
[] 0 sd
[] 0 sd
0 slj
n 17.000000 12.000000 m 17.000000 13.000000 l 18.000000 13.000000 l 18.000000 12.000000 l f
n 17.000000 12.000000 m 17.000000 13.000000 l 18.000000 13.000000 l 18.000000 12.000000 l cp s
0.100000 slw
[] 0 sd
[] 0 sd
0 slj
1.000000 1.000000 1.000000 srgb
n 18.000000 12.000000 m 18.000000 13.000000 l 19.000000 13.000000 l 19.000000 12.000000 l f
0.000000 0.000000 0.000000 srgb
n 18.000000 12.000000 m 18.000000 13.000000 l 19.000000 13.000000 l 19.000000 12.000000 l cp s
0.100000 slw
[] 0 sd
[] 0 sd
0 slj
1.000000 1.000000 1.000000 srgb
n 19.000000 12.000000 m 19.000000 13.000000 l 20.000000 13.000000 l 20.000000 12.000000 l f
0.000000 0.000000 0.000000 srgb
n 19.000000 12.000000 m 19.000000 13.000000 l 20.000000 13.000000 l 20.000000 12.000000 l cp s
0.100000 slw
[] 0 sd
[] 0 sd
0 slj
n 20.000000 12.000000 m 20.000000 13.000000 l 21.000000 13.000000 l 21.000000 12.000000 l f
n 20.000000 12.000000 m 20.000000 13.000000 l 21.000000 13.000000 l 21.000000 12.000000 l cp s
0.100000 slw
[] 0 sd
[] 0 sd
0 slj
1.000000 1.000000 1.000000 srgb
n 21.000000 12.000000 m 21.000000 13.000000 l 22.000000 13.000000 l 22.000000 12.000000 l f
0.000000 0.000000 0.000000 srgb
n 21.000000 12.000000 m 21.000000 13.000000 l 22.000000 13.000000 l 22.000000 12.000000 l cp s
0.100000 slw
[] 0 sd
[] 0 sd
0 slj
1.000000 1.000000 1.000000 srgb
n 22.000000 12.000000 m 22.000000 13.000000 l 23.000000 13.000000 l 23.000000 12.000000 l f
0.000000 0.000000 0.000000 srgb
n 22.000000 12.000000 m 22.000000 13.000000 l 23.000000 13.000000 l 23.000000 12.000000 l cp s
0.100000 slw
[] 0 sd
[] 0 sd
0 slj
1.000000 1.000000 1.000000 srgb
n 23.000000 12.000000 m 23.000000 13.000000 l 24.000000 13.000000 l 24.000000 12.000000 l f
0.000000 0.000000 0.000000 srgb
n 23.000000 12.000000 m 23.000000 13.000000 l 24.000000 13.000000 l 24.000000 12.000000 l cp s
0.100000 slw
[] 0 sd
[] 0 sd
0 slj
1.000000 1.000000 1.000000 srgb
n 24.000000 12.000000 m 24.000000 13.000000 l 25.000000 13.000000 l 25.000000 12.000000 l f
0.000000 0.000000 0.000000 srgb
n 24.000000 12.000000 m 24.000000 13.000000 l 25.000000 13.000000 l 25.000000 12.000000 l cp s
0.100000 slw
[] 0 sd
[] 0 sd
0 slj
1.000000 1.000000 1.000000 srgb
n 25.000000 12.000000 m 25.000000 13.000000 l 26.000000 13.000000 l 26.000000 12.000000 l f
0.000000 0.000000 0.000000 srgb
n 25.000000 12.000000 m 25.000000 13.000000 l 26.000000 13.000000 l 26.000000 12.000000 l cp s
0.100000 slw
[] 0 sd
[] 0 sd
0 slj
n 26.000000 12.000000 m 26.000000 13.000000 l 27.000000 13.000000 l 27.000000 12.000000 l f
n 26.000000 12.000000 m 26.000000 13.000000 l 27.000000 13.000000 l 27.000000 12.000000 l cp s
0.100000 slw
[] 0 sd
[] 0 sd
0 slj
n 17.000000 13.000000 m 17.000000 14.000000 l 18.000000 14.000000 l 18.000000 13.000000 l f
n 17.000000 13.000000 m 17.000000 14.000000 l 18.000000 14.000000 l 18.000000 13.000000 l cp s
0.100000 slw
[] 0 sd
[] 0 sd
0 slj
1.000000 1.000000 1.000000 srgb
n 18.000000 13.000000 m 18.000000 14.000000 l 19.000000 14.000000 l 19.000000 13.000000 l f
0.000000 0.000000 0.000000 srgb
n 18.000000 13.000000 m 18.000000 14.000000 l 19.000000 14.000000 l 19.000000 13.000000 l cp s
0.100000 slw
[] 0 sd
[] 0 sd
0 slj
1.000000 1.000000 1.000000 srgb
n 19.000000 13.000000 m 19.000000 14.000000 l 20.000000 14.000000 l 20.000000 13.000000 l f
0.000000 0.000000 0.000000 srgb
n 19.000000 13.000000 m 19.000000 14.000000 l 20.000000 14.000000 l 20.000000 13.000000 l cp s
0.100000 slw
[] 0 sd
[] 0 sd
0 slj
n 20.000000 13.000000 m 20.000000 14.000000 l 21.000000 14.000000 l 21.000000 13.000000 l f
n 20.000000 13.000000 m 20.000000 14.000000 l 21.000000 14.000000 l 21.000000 13.000000 l cp s
0.100000 slw
[] 0 sd
[] 0 sd
0 slj
1.000000 1.000000 1.000000 srgb
n 21.000000 13.000000 m 21.000000 14.000000 l 22.000000 14.000000 l 22.000000 13.000000 l f
0.000000 0.000000 0.000000 srgb
n 21.000000 13.000000 m 21.000000 14.000000 l 22.000000 14.000000 l 22.000000 13.000000 l cp s
0.100000 slw
[] 0 sd
[] 0 sd
0 slj
1.000000 1.000000 1.000000 srgb
n 22.000000 13.000000 m 22.000000 14.000000 l 23.000000 14.000000 l 23.000000 13.000000 l f
0.000000 0.000000 0.000000 srgb
n 22.000000 13.000000 m 22.000000 14.000000 l 23.000000 14.000000 l 23.000000 13.000000 l cp s
0.100000 slw
[] 0 sd
[] 0 sd
0 slj
1.000000 1.000000 1.000000 srgb
n 23.000000 13.000000 m 23.000000 14.000000 l 24.000000 14.000000 l 24.000000 13.000000 l f
0.000000 0.000000 0.000000 srgb
n 23.000000 13.000000 m 23.000000 14.000000 l 24.000000 14.000000 l 24.000000 13.000000 l cp s
0.100000 slw
[] 0 sd
[] 0 sd
0 slj
1.000000 1.000000 1.000000 srgb
n 24.000000 13.000000 m 24.000000 14.000000 l 25.000000 14.000000 l 25.000000 13.000000 l f
0.000000 0.000000 0.000000 srgb
n 24.000000 13.000000 m 24.000000 14.000000 l 25.000000 14.000000 l 25.000000 13.000000 l cp s
0.100000 slw
[] 0 sd
[] 0 sd
0 slj
1.000000 1.000000 1.000000 srgb
n 25.000000 13.000000 m 25.000000 14.000000 l 26.000000 14.000000 l 26.000000 13.000000 l f
0.000000 0.000000 0.000000 srgb
n 25.000000 13.000000 m 25.000000 14.000000 l 26.000000 14.000000 l 26.000000 13.000000 l cp s
0.100000 slw
[] 0 sd
[] 0 sd
0 slj
n 26.000000 13.000000 m 26.000000 14.000000 l 27.000000 14.000000 l 27.000000 13.000000 l f
n 26.000000 13.000000 m 26.000000 14.000000 l 27.000000 14.000000 l 27.000000 13.000000 l cp s
0.100000 slw
[] 0 sd
[] 0 sd
0 slj
n 17.000000 14.000000 m 17.000000 15.000000 l 18.000000 15.000000 l 18.000000 14.000000 l f
n 17.000000 14.000000 m 17.000000 15.000000 l 18.000000 15.000000 l 18.000000 14.000000 l cp s
0.100000 slw
[] 0 sd
[] 0 sd
0 slj
1.000000 1.000000 1.000000 srgb
n 18.000000 14.000000 m 18.000000 15.000000 l 19.000000 15.000000 l 19.000000 14.000000 l f
0.000000 0.000000 0.000000 srgb
n 18.000000 14.000000 m 18.000000 15.000000 l 19.000000 15.000000 l 19.000000 14.000000 l cp s
0.100000 slw
[] 0 sd
[] 0 sd
0 slj
1.000000 1.000000 1.000000 srgb
n 19.000000 14.000000 m 19.000000 15.000000 l 20.000000 15.000000 l 20.000000 14.000000 l f
0.000000 0.000000 0.000000 srgb
n 19.000000 14.000000 m 19.000000 15.000000 l 20.000000 15.000000 l 20.000000 14.000000 l cp s
0.100000 slw
[] 0 sd
[] 0 sd
0 slj
n 20.000000 14.000000 m 20.000000 15.000000 l 21.000000 15.000000 l 21.000000 14.000000 l f
n 20.000000 14.000000 m 20.000000 15.000000 l 21.000000 15.000000 l 21.000000 14.000000 l cp s
0.100000 slw
[] 0 sd
[] 0 sd
0 slj
1.000000 1.000000 1.000000 srgb
n 21.000000 14.000000 m 21.000000 15.000000 l 22.000000 15.000000 l 22.000000 14.000000 l f
0.000000 0.000000 0.000000 srgb
n 21.000000 14.000000 m 21.000000 15.000000 l 22.000000 15.000000 l 22.000000 14.000000 l cp s
0.100000 slw
[] 0 sd
[] 0 sd
0 slj
1.000000 1.000000 1.000000 srgb
n 22.000000 14.000000 m 22.000000 15.000000 l 23.000000 15.000000 l 23.000000 14.000000 l f
0.000000 0.000000 0.000000 srgb
n 22.000000 14.000000 m 22.000000 15.000000 l 23.000000 15.000000 l 23.000000 14.000000 l cp s
0.100000 slw
[] 0 sd
[] 0 sd
0 slj
n 23.000000 14.000000 m 23.000000 15.000000 l 24.000000 15.000000 l 24.000000 14.000000 l f
n 23.000000 14.000000 m 23.000000 15.000000 l 24.000000 15.000000 l 24.000000 14.000000 l cp s
0.100000 slw
[] 0 sd
[] 0 sd
0 slj
n 24.000000 14.000000 m 24.000000 15.000000 l 25.000000 15.000000 l 25.000000 14.000000 l f
n 24.000000 14.000000 m 24.000000 15.000000 l 25.000000 15.000000 l 25.000000 14.000000 l cp s
0.100000 slw
[] 0 sd
[] 0 sd
0 slj
n 25.000000 14.000000 m 25.000000 15.000000 l 26.000000 15.000000 l 26.000000 14.000000 l f
n 25.000000 14.000000 m 25.000000 15.000000 l 26.000000 15.000000 l 26.000000 14.000000 l cp s
0.100000 slw
[] 0 sd
[] 0 sd
0 slj
n 26.000000 14.000000 m 26.000000 15.000000 l 27.000000 15.000000 l 27.000000 14.000000 l f
n 26.000000 14.000000 m 26.000000 15.000000 l 27.000000 15.000000 l 27.000000 14.000000 l cp s
0.100000 slw
[] 0 sd
[] 0 sd
0 slj
n 17.000000 15.000000 m 17.000000 16.000000 l 18.000000 16.000000 l 18.000000 15.000000 l f
n 17.000000 15.000000 m 17.000000 16.000000 l 18.000000 16.000000 l 18.000000 15.000000 l cp s
0.100000 slw
[] 0 sd
[] 0 sd
0 slj
1.000000 1.000000 1.000000 srgb
n 18.000000 15.000000 m 18.000000 16.000000 l 19.000000 16.000000 l 19.000000 15.000000 l f
0.000000 0.000000 0.000000 srgb
n 18.000000 15.000000 m 18.000000 16.000000 l 19.000000 16.000000 l 19.000000 15.000000 l cp s
0.100000 slw
[] 0 sd
[] 0 sd
0 slj
1.000000 1.000000 1.000000 srgb
n 19.000000 15.000000 m 19.000000 16.000000 l 20.000000 16.000000 l 20.000000 15.000000 l f
0.000000 0.000000 0.000000 srgb
n 19.000000 15.000000 m 19.000000 16.000000 l 20.000000 16.000000 l 20.000000 15.000000 l cp s
0.100000 slw
[] 0 sd
[] 0 sd
0 slj
1.000000 1.000000 1.000000 srgb
n 20.000000 15.000000 m 20.000000 16.000000 l 21.000000 16.000000 l 21.000000 15.000000 l f
0.000000 0.000000 0.000000 srgb
n 20.000000 15.000000 m 20.000000 16.000000 l 21.000000 16.000000 l 21.000000 15.000000 l cp s
0.100000 slw
[] 0 sd
[] 0 sd
0 slj
1.000000 1.000000 1.000000 srgb
n 21.000000 15.000000 m 21.000000 16.000000 l 22.000000 16.000000 l 22.000000 15.000000 l f
0.000000 0.000000 0.000000 srgb
n 21.000000 15.000000 m 21.000000 16.000000 l 22.000000 16.000000 l 22.000000 15.000000 l cp s
0.100000 slw
[] 0 sd
[] 0 sd
0 slj
1.000000 1.000000 1.000000 srgb
n 22.000000 15.000000 m 22.000000 16.000000 l 23.000000 16.000000 l 23.000000 15.000000 l f
0.000000 0.000000 0.000000 srgb
n 22.000000 15.000000 m 22.000000 16.000000 l 23.000000 16.000000 l 23.000000 15.000000 l cp s
0.100000 slw
[] 0 sd
[] 0 sd
0 slj
1.000000 1.000000 1.000000 srgb
n 23.000000 15.000000 m 23.000000 16.000000 l 24.000000 16.000000 l 24.000000 15.000000 l f
0.000000 0.000000 0.000000 srgb
n 23.000000 15.000000 m 23.000000 16.000000 l 24.000000 16.000000 l 24.000000 15.000000 l cp s
0.100000 slw
[] 0 sd
[] 0 sd
0 slj
1.000000 1.000000 1.000000 srgb
n 24.000000 15.000000 m 24.000000 16.000000 l 25.000000 16.000000 l 25.000000 15.000000 l f
0.000000 0.000000 0.000000 srgb
n 24.000000 15.000000 m 24.000000 16.000000 l 25.000000 16.000000 l 25.000000 15.000000 l cp s
0.100000 slw
[] 0 sd
[] 0 sd
0 slj
1.000000 1.000000 1.000000 srgb
n 25.000000 15.000000 m 25.000000 16.000000 l 26.000000 16.000000 l 26.000000 15.000000 l f
0.000000 0.000000 0.000000 srgb
n 25.000000 15.000000 m 25.000000 16.000000 l 26.000000 16.000000 l 26.000000 15.000000 l cp s
0.100000 slw
[] 0 sd
[] 0 sd
0 slj
n 26.000000 15.000000 m 26.000000 16.000000 l 27.000000 16.000000 l 27.000000 15.000000 l f
n 26.000000 15.000000 m 26.000000 16.000000 l 27.000000 16.000000 l 27.000000 15.000000 l cp s
0.100000 slw
[] 0 sd
[] 0 sd
0 slj
n 17.000000 16.000000 m 17.000000 17.000000 l 18.000000 17.000000 l 18.000000 16.000000 l f
n 17.000000 16.000000 m 17.000000 17.000000 l 18.000000 17.000000 l 18.000000 16.000000 l cp s
0.100000 slw
[] 0 sd
[] 0 sd
0 slj
n 18.000000 16.000000 m 18.000000 17.000000 l 19.000000 17.000000 l 19.000000 16.000000 l f
n 18.000000 16.000000 m 18.000000 17.000000 l 19.000000 17.000000 l 19.000000 16.000000 l cp s
0.100000 slw
[] 0 sd
[] 0 sd
0 slj
n 19.000000 16.000000 m 19.000000 17.000000 l 20.000000 17.000000 l 20.000000 16.000000 l f
n 19.000000 16.000000 m 19.000000 17.000000 l 20.000000 17.000000 l 20.000000 16.000000 l cp s
0.100000 slw
[] 0 sd
[] 0 sd
0 slj
n 20.000000 16.000000 m 20.000000 17.000000 l 21.000000 17.000000 l 21.000000 16.000000 l f
n 20.000000 16.000000 m 20.000000 17.000000 l 21.000000 17.000000 l 21.000000 16.000000 l cp s
0.100000 slw
[] 0 sd
[] 0 sd
0 slj
n 21.000000 16.000000 m 21.000000 17.000000 l 22.000000 17.000000 l 22.000000 16.000000 l f
n 21.000000 16.000000 m 21.000000 17.000000 l 22.000000 17.000000 l 22.000000 16.000000 l cp s
0.100000 slw
[] 0 sd
[] 0 sd
0 slj
n 22.000000 16.000000 m 22.000000 17.000000 l 23.000000 17.000000 l 23.000000 16.000000 l f
n 22.000000 16.000000 m 22.000000 17.000000 l 23.000000 17.000000 l 23.000000 16.000000 l cp s
0.100000 slw
[] 0 sd
[] 0 sd
0 slj
n 23.000000 16.000000 m 23.000000 17.000000 l 24.000000 17.000000 l 24.000000 16.000000 l f
n 23.000000 16.000000 m 23.000000 17.000000 l 24.000000 17.000000 l 24.000000 16.000000 l cp s
0.100000 slw
[] 0 sd
[] 0 sd
0 slj
1.000000 1.000000 1.000000 srgb
n 24.000000 16.000000 m 24.000000 17.000000 l 25.000000 17.000000 l 25.000000 16.000000 l f
0.000000 0.000000 0.000000 srgb
n 24.000000 16.000000 m 24.000000 17.000000 l 25.000000 17.000000 l 25.000000 16.000000 l cp s
0.100000 slw
[] 0 sd
[] 0 sd
0 slj
1.000000 1.000000 1.000000 srgb
n 25.000000 16.000000 m 25.000000 17.000000 l 26.000000 17.000000 l 26.000000 16.000000 l f
0.000000 0.000000 0.000000 srgb
n 25.000000 16.000000 m 25.000000 17.000000 l 26.000000 17.000000 l 26.000000 16.000000 l cp s
0.100000 slw
[] 0 sd
[] 0 sd
0 slj
n 26.000000 16.000000 m 26.000000 17.000000 l 27.000000 17.000000 l 27.000000 16.000000 l f
n 26.000000 16.000000 m 26.000000 17.000000 l 27.000000 17.000000 l 27.000000 16.000000 l cp s
0.100000 slw
[] 0 sd
[] 0 sd
0 slj
n 17.000000 17.000000 m 17.000000 18.000000 l 18.000000 18.000000 l 18.000000 17.000000 l f
n 17.000000 17.000000 m 17.000000 18.000000 l 18.000000 18.000000 l 18.000000 17.000000 l cp s
0.100000 slw
[] 0 sd
[] 0 sd
0 slj
1.000000 1.000000 1.000000 srgb
n 18.000000 17.000000 m 18.000000 18.000000 l 19.000000 18.000000 l 19.000000 17.000000 l f
0.000000 0.000000 0.000000 srgb
n 18.000000 17.000000 m 18.000000 18.000000 l 19.000000 18.000000 l 19.000000 17.000000 l cp s
0.100000 slw
[] 0 sd
[] 0 sd
0 slj
1.000000 1.000000 1.000000 srgb
n 19.000000 17.000000 m 19.000000 18.000000 l 20.000000 18.000000 l 20.000000 17.000000 l f
0.000000 0.000000 0.000000 srgb
n 19.000000 17.000000 m 19.000000 18.000000 l 20.000000 18.000000 l 20.000000 17.000000 l cp s
0.100000 slw
[] 0 sd
[] 0 sd
0 slj
1.000000 1.000000 1.000000 srgb
n 20.000000 17.000000 m 20.000000 18.000000 l 21.000000 18.000000 l 21.000000 17.000000 l f
0.000000 0.000000 0.000000 srgb
n 20.000000 17.000000 m 20.000000 18.000000 l 21.000000 18.000000 l 21.000000 17.000000 l cp s
0.100000 slw
[] 0 sd
[] 0 sd
0 slj
1.000000 1.000000 1.000000 srgb
n 21.000000 17.000000 m 21.000000 18.000000 l 22.000000 18.000000 l 22.000000 17.000000 l f
0.000000 0.000000 0.000000 srgb
n 21.000000 17.000000 m 21.000000 18.000000 l 22.000000 18.000000 l 22.000000 17.000000 l cp s
0.100000 slw
[] 0 sd
[] 0 sd
0 slj
1.000000 1.000000 1.000000 srgb
n 22.000000 17.000000 m 22.000000 18.000000 l 23.000000 18.000000 l 23.000000 17.000000 l f
0.000000 0.000000 0.000000 srgb
n 22.000000 17.000000 m 22.000000 18.000000 l 23.000000 18.000000 l 23.000000 17.000000 l cp s
0.100000 slw
[] 0 sd
[] 0 sd
0 slj
n 23.000000 17.000000 m 23.000000 18.000000 l 24.000000 18.000000 l 24.000000 17.000000 l f
n 23.000000 17.000000 m 23.000000 18.000000 l 24.000000 18.000000 l 24.000000 17.000000 l cp s
0.100000 slw
[] 0 sd
[] 0 sd
0 slj
1.000000 1.000000 1.000000 srgb
n 24.000000 17.000000 m 24.000000 18.000000 l 25.000000 18.000000 l 25.000000 17.000000 l f
0.000000 0.000000 0.000000 srgb
n 24.000000 17.000000 m 24.000000 18.000000 l 25.000000 18.000000 l 25.000000 17.000000 l cp s
0.100000 slw
[] 0 sd
[] 0 sd
0 slj
1.000000 1.000000 1.000000 srgb
n 25.000000 17.000000 m 25.000000 18.000000 l 26.000000 18.000000 l 26.000000 17.000000 l f
0.000000 0.000000 0.000000 srgb
n 25.000000 17.000000 m 25.000000 18.000000 l 26.000000 18.000000 l 26.000000 17.000000 l cp s
0.100000 slw
[] 0 sd
[] 0 sd
0 slj
n 26.000000 17.000000 m 26.000000 18.000000 l 27.000000 18.000000 l 27.000000 17.000000 l f
n 26.000000 17.000000 m 26.000000 18.000000 l 27.000000 18.000000 l 27.000000 17.000000 l cp s
0.100000 slw
[] 0 sd
[] 0 sd
0 slj
n 17.000000 18.000000 m 17.000000 19.000000 l 18.000000 19.000000 l 18.000000 18.000000 l f
n 17.000000 18.000000 m 17.000000 19.000000 l 18.000000 19.000000 l 18.000000 18.000000 l cp s
0.100000 slw
[] 0 sd
[] 0 sd
0 slj
1.000000 1.000000 1.000000 srgb
n 18.000000 18.000000 m 18.000000 19.000000 l 19.000000 19.000000 l 19.000000 18.000000 l f
0.000000 0.000000 0.000000 srgb
n 18.000000 18.000000 m 18.000000 19.000000 l 19.000000 19.000000 l 19.000000 18.000000 l cp s
0.100000 slw
[] 0 sd
[] 0 sd
0 slj
n 19.000000 18.000000 m 19.000000 19.000000 l 20.000000 19.000000 l 20.000000 18.000000 l f
n 19.000000 18.000000 m 19.000000 19.000000 l 20.000000 19.000000 l 20.000000 18.000000 l cp s
0.100000 slw
[] 0 sd
[] 0 sd
0 slj
n 20.000000 18.000000 m 20.000000 19.000000 l 21.000000 19.000000 l 21.000000 18.000000 l f
n 20.000000 18.000000 m 20.000000 19.000000 l 21.000000 19.000000 l 21.000000 18.000000 l cp s
0.100000 slw
[] 0 sd
[] 0 sd
0 slj
n 21.000000 18.000000 m 21.000000 19.000000 l 22.000000 19.000000 l 22.000000 18.000000 l f
n 21.000000 18.000000 m 21.000000 19.000000 l 22.000000 19.000000 l 22.000000 18.000000 l cp s
0.100000 slw
[] 0 sd
[] 0 sd
0 slj
1.000000 1.000000 1.000000 srgb
n 22.000000 18.000000 m 22.000000 19.000000 l 23.000000 19.000000 l 23.000000 18.000000 l f
0.000000 0.000000 0.000000 srgb
n 22.000000 18.000000 m 22.000000 19.000000 l 23.000000 19.000000 l 23.000000 18.000000 l cp s
0.100000 slw
[] 0 sd
[] 0 sd
0 slj
n 23.000000 18.000000 m 23.000000 19.000000 l 24.000000 19.000000 l 24.000000 18.000000 l f
n 23.000000 18.000000 m 23.000000 19.000000 l 24.000000 19.000000 l 24.000000 18.000000 l cp s
0.100000 slw
[] 0 sd
[] 0 sd
0 slj
n 24.000000 18.000000 m 24.000000 19.000000 l 25.000000 19.000000 l 25.000000 18.000000 l f
n 24.000000 18.000000 m 24.000000 19.000000 l 25.000000 19.000000 l 25.000000 18.000000 l cp s
0.100000 slw
[] 0 sd
[] 0 sd
0 slj
1.000000 1.000000 1.000000 srgb
n 25.000000 18.000000 m 25.000000 19.000000 l 26.000000 19.000000 l 26.000000 18.000000 l f
0.000000 0.000000 0.000000 srgb
n 25.000000 18.000000 m 25.000000 19.000000 l 26.000000 19.000000 l 26.000000 18.000000 l cp s
0.100000 slw
[] 0 sd
[] 0 sd
0 slj
n 26.000000 18.000000 m 26.000000 19.000000 l 27.000000 19.000000 l 27.000000 18.000000 l f
n 26.000000 18.000000 m 26.000000 19.000000 l 27.000000 19.000000 l 27.000000 18.000000 l cp s
0.100000 slw
[] 0 sd
[] 0 sd
0 slj
n 17.000000 19.000000 m 17.000000 20.000000 l 18.000000 20.000000 l 18.000000 19.000000 l f
n 17.000000 19.000000 m 17.000000 20.000000 l 18.000000 20.000000 l 18.000000 19.000000 l cp s
0.100000 slw
[] 0 sd
[] 0 sd
0 slj
1.000000 1.000000 1.000000 srgb
n 18.000000 19.000000 m 18.000000 20.000000 l 19.000000 20.000000 l 19.000000 19.000000 l f
0.000000 0.000000 0.000000 srgb
n 18.000000 19.000000 m 18.000000 20.000000 l 19.000000 20.000000 l 19.000000 19.000000 l cp s
0.100000 slw
[] 0 sd
[] 0 sd
0 slj
1.000000 1.000000 1.000000 srgb
n 19.000000 19.000000 m 19.000000 20.000000 l 20.000000 20.000000 l 20.000000 19.000000 l f
0.000000 0.000000 0.000000 srgb
n 19.000000 19.000000 m 19.000000 20.000000 l 20.000000 20.000000 l 20.000000 19.000000 l cp s
0.100000 slw
[] 0 sd
[] 0 sd
0 slj
1.000000 1.000000 1.000000 srgb
n 20.000000 19.000000 m 20.000000 20.000000 l 21.000000 20.000000 l 21.000000 19.000000 l f
0.000000 0.000000 0.000000 srgb
n 20.000000 19.000000 m 20.000000 20.000000 l 21.000000 20.000000 l 21.000000 19.000000 l cp s
0.100000 slw
[] 0 sd
[] 0 sd
0 slj
n 21.000000 19.000000 m 21.000000 20.000000 l 22.000000 20.000000 l 22.000000 19.000000 l f
n 21.000000 19.000000 m 21.000000 20.000000 l 22.000000 20.000000 l 22.000000 19.000000 l cp s
0.100000 slw
[] 0 sd
[] 0 sd
0 slj
1.000000 1.000000 1.000000 srgb
n 22.000000 19.000000 m 22.000000 20.000000 l 23.000000 20.000000 l 23.000000 19.000000 l f
0.000000 0.000000 0.000000 srgb
n 22.000000 19.000000 m 22.000000 20.000000 l 23.000000 20.000000 l 23.000000 19.000000 l cp s
0.100000 slw
[] 0 sd
[] 0 sd
0 slj
1.000000 1.000000 1.000000 srgb
n 23.000000 19.000000 m 23.000000 20.000000 l 24.000000 20.000000 l 24.000000 19.000000 l f
0.000000 0.000000 0.000000 srgb
n 23.000000 19.000000 m 23.000000 20.000000 l 24.000000 20.000000 l 24.000000 19.000000 l cp s
0.100000 slw
[] 0 sd
[] 0 sd
0 slj
1.000000 1.000000 1.000000 srgb
n 24.000000 19.000000 m 24.000000 20.000000 l 25.000000 20.000000 l 25.000000 19.000000 l f
0.000000 0.000000 0.000000 srgb
n 24.000000 19.000000 m 24.000000 20.000000 l 25.000000 20.000000 l 25.000000 19.000000 l cp s
0.100000 slw
[] 0 sd
[] 0 sd
0 slj
1.000000 1.000000 1.000000 srgb
n 25.000000 19.000000 m 25.000000 20.000000 l 26.000000 20.000000 l 26.000000 19.000000 l f
0.000000 0.000000 0.000000 srgb
n 25.000000 19.000000 m 25.000000 20.000000 l 26.000000 20.000000 l 26.000000 19.000000 l cp s
0.100000 slw
[] 0 sd
[] 0 sd
0 slj
n 26.000000 19.000000 m 26.000000 20.000000 l 27.000000 20.000000 l 27.000000 19.000000 l f
n 26.000000 19.000000 m 26.000000 20.000000 l 27.000000 20.000000 l 27.000000 19.000000 l cp s
0.100000 slw
[] 0 sd
[] 0 sd
0 slj
n 17.000000 20.000000 m 17.000000 21.000000 l 18.000000 21.000000 l 18.000000 20.000000 l f
n 17.000000 20.000000 m 17.000000 21.000000 l 18.000000 21.000000 l 18.000000 20.000000 l cp s
0.100000 slw
[] 0 sd
[] 0 sd
0 slj
n 18.000000 20.000000 m 18.000000 21.000000 l 19.000000 21.000000 l 19.000000 20.000000 l f
n 18.000000 20.000000 m 18.000000 21.000000 l 19.000000 21.000000 l 19.000000 20.000000 l cp s
0.100000 slw
[] 0 sd
[] 0 sd
0 slj
n 19.000000 20.000000 m 19.000000 21.000000 l 20.000000 21.000000 l 20.000000 20.000000 l f
n 19.000000 20.000000 m 19.000000 21.000000 l 20.000000 21.000000 l 20.000000 20.000000 l cp s
0.100000 slw
[] 0 sd
[] 0 sd
0 slj
n 20.000000 20.000000 m 20.000000 21.000000 l 21.000000 21.000000 l 21.000000 20.000000 l f
n 20.000000 20.000000 m 20.000000 21.000000 l 21.000000 21.000000 l 21.000000 20.000000 l cp s
0.100000 slw
[] 0 sd
[] 0 sd
0 slj
n 21.000000 20.000000 m 21.000000 21.000000 l 22.000000 21.000000 l 22.000000 20.000000 l f
n 21.000000 20.000000 m 21.000000 21.000000 l 22.000000 21.000000 l 22.000000 20.000000 l cp s
0.100000 slw
[] 0 sd
[] 0 sd
0 slj
n 22.000000 20.000000 m 22.000000 21.000000 l 23.000000 21.000000 l 23.000000 20.000000 l f
n 22.000000 20.000000 m 22.000000 21.000000 l 23.000000 21.000000 l 23.000000 20.000000 l cp s
0.100000 slw
[] 0 sd
[] 0 sd
0 slj
n 23.000000 20.000000 m 23.000000 21.000000 l 24.000000 21.000000 l 24.000000 20.000000 l f
n 23.000000 20.000000 m 23.000000 21.000000 l 24.000000 21.000000 l 24.000000 20.000000 l cp s
0.100000 slw
[] 0 sd
[] 0 sd
0 slj
n 24.000000 20.000000 m 24.000000 21.000000 l 25.000000 21.000000 l 25.000000 20.000000 l f
n 24.000000 20.000000 m 24.000000 21.000000 l 25.000000 21.000000 l 25.000000 20.000000 l cp s
0.100000 slw
[] 0 sd
[] 0 sd
0 slj
n 25.000000 20.000000 m 25.000000 21.000000 l 26.000000 21.000000 l 26.000000 20.000000 l f
n 25.000000 20.000000 m 25.000000 21.000000 l 26.000000 21.000000 l 26.000000 20.000000 l cp s
0.100000 slw
[] 0 sd
[] 0 sd
0 slj
n 26.000000 20.000000 m 26.000000 21.000000 l 27.000000 21.000000 l 27.000000 20.000000 l f
n 26.000000 20.000000 m 26.000000 21.000000 l 27.000000 21.000000 l 27.000000 20.000000 l cp s
showpage
