%!PS-Adobe-2.0 EPSF-2.0
%%Title: /home/david/src/honours_report/resources/hpastar_graph_abstraction_example.dia
%%Creator: Dia v0.97.3
%%CreationDate: Thu Aug 20 16:51:44 2015
%%For: david
%%Orientation: Portrait
%%Magnification: 1.0000
%%BoundingBox: 0 0 601 511
%%BeginSetup
%%EndSetup
%%EndComments
%%BeginProlog
[ /.notdef /.notdef /.notdef /.notdef /.notdef /.notdef /.notdef /.notdef /.notdef /.notdef
/.notdef /.notdef /.notdef /.notdef /.notdef /.notdef /.notdef /.notdef /.notdef /.notdef
/.notdef /.notdef /.notdef /.notdef /.notdef /.notdef /.notdef /.notdef /.notdef /.notdef
/.notdef /.notdef /space /exclam /quotedbl /numbersign /dollar /percent /ampersand /quoteright
/parenleft /parenright /asterisk /plus /comma /hyphen /period /slash /zero /one
/two /three /four /five /six /seven /eight /nine /colon /semicolon
/less /equal /greater /question /at /A /B /C /D /E
/F /G /H /I /J /K /L /M /N /O
/P /Q /R /S /T /U /V /W /X /Y
/Z /bracketleft /backslash /bracketright /asciicircum /underscore /quoteleft /a /b /c
/d /e /f /g /h /i /j /k /l /m
/n /o /p /q /r /s /t /u /v /w
/x /y /z /braceleft /bar /braceright /asciitilde /.notdef /.notdef /.notdef
/.notdef /.notdef /.notdef /.notdef /.notdef /.notdef /.notdef /.notdef /.notdef /.notdef
/.notdef /.notdef /.notdef /.notdef /.notdef /.notdef /.notdef /.notdef /.notdef /.notdef
/.notdef /.notdef /.notdef /.notdef /.notdef /.notdef /.notdef /.notdef /.notdef /.notdef
/space /exclamdown /cent /sterling /currency /yen /brokenbar /section /dieresis /copyright
/ordfeminine /guillemotleft /logicalnot /hyphen /registered /macron /degree /plusminus /twosuperior /threesuperior
/acute /mu /paragraph /periodcentered /cedilla /onesuperior /ordmasculine /guillemotright /onequarter /onehalf
/threequarters /questiondown /Agrave /Aacute /Acircumflex /Atilde /Adieresis /Aring /AE /Ccedilla
/Egrave /Eacute /Ecircumflex /Edieresis /Igrave /Iacute /Icircumflex /Idieresis /Eth /Ntilde
/Ograve /Oacute /Ocircumflex /Otilde /Odieresis /multiply /Oslash /Ugrave /Uacute /Ucircumflex
/Udieresis /Yacute /Thorn /germandbls /agrave /aacute /acircumflex /atilde /adieresis /aring
/ae /ccedilla /egrave /eacute /ecircumflex /edieresis /igrave /iacute /icircumflex /idieresis
/eth /ntilde /ograve /oacute /ocircumflex /otilde /odieresis /divide /oslash /ugrave
/uacute /ucircumflex /udieresis /yacute /thorn /ydieresis] /isolatin1encoding exch def
/cp {closepath} bind def
/c {curveto} bind def
/f {fill} bind def
/a {arc} bind def
/ef {eofill} bind def
/ex {exch} bind def
/gr {grestore} bind def
/gs {gsave} bind def
/sa {save} bind def
/rs {restore} bind def
/l {lineto} bind def
/m {moveto} bind def
/rm {rmoveto} bind def
/n {newpath} bind def
/s {stroke} bind def
/sh {show} bind def
/slc {setlinecap} bind def
/slj {setlinejoin} bind def
/slw {setlinewidth} bind def
/srgb {setrgbcolor} bind def
/rot {rotate} bind def
/sc {scale} bind def
/sd {setdash} bind def
/ff {findfont} bind def
/sf {setfont} bind def
/scf {scalefont} bind def
/sw {stringwidth pop} bind def
/tr {translate} bind def

/ellipsedict 8 dict def
ellipsedict /mtrx matrix put
/ellipse
{ ellipsedict begin
   /endangle exch def
   /startangle exch def
   /yrad exch def
   /xrad exch def
   /y exch def
   /x exch def   /savematrix mtrx currentmatrix def
   x y tr xrad yrad sc
   0 0 1 startangle endangle arc
   savematrix setmatrix
   end
} def

/mergeprocs {
dup length
3 -1 roll
dup
length
dup
5 1 roll
3 -1 roll
add
array cvx
dup
3 -1 roll
0 exch
putinterval
dup
4 2 roll
putinterval
} bind def
/Times-Roman-latin1
    /Times-Roman findfont
    dup length dict begin
	{1 index /FID ne {def} {pop pop} ifelse} forall
	/Encoding isolatin1encoding def
    currentdict end
definefont pop
/Times-Italic-latin1
    /Times-Italic findfont
    dup length dict begin
	{1 index /FID ne {def} {pop pop} ifelse} forall
	/Encoding isolatin1encoding def
    currentdict end
definefont pop
/Times-Bold-latin1
    /Times-Bold findfont
    dup length dict begin
	{1 index /FID ne {def} {pop pop} ifelse} forall
	/Encoding isolatin1encoding def
    currentdict end
definefont pop
/Times-BoldItalic-latin1
    /Times-BoldItalic findfont
    dup length dict begin
	{1 index /FID ne {def} {pop pop} ifelse} forall
	/Encoding isolatin1encoding def
    currentdict end
definefont pop
/AvantGarde-Gothic-latin1
    /AvantGarde-Gothic findfont
    dup length dict begin
	{1 index /FID ne {def} {pop pop} ifelse} forall
	/Encoding isolatin1encoding def
    currentdict end
definefont pop
/AvantGarde-BookOblique-latin1
    /AvantGarde-BookOblique findfont
    dup length dict begin
	{1 index /FID ne {def} {pop pop} ifelse} forall
	/Encoding isolatin1encoding def
    currentdict end
definefont pop
/AvantGarde-Demi-latin1
    /AvantGarde-Demi findfont
    dup length dict begin
	{1 index /FID ne {def} {pop pop} ifelse} forall
	/Encoding isolatin1encoding def
    currentdict end
definefont pop
/AvantGarde-DemiOblique-latin1
    /AvantGarde-DemiOblique findfont
    dup length dict begin
	{1 index /FID ne {def} {pop pop} ifelse} forall
	/Encoding isolatin1encoding def
    currentdict end
definefont pop
/Bookman-Light-latin1
    /Bookman-Light findfont
    dup length dict begin
	{1 index /FID ne {def} {pop pop} ifelse} forall
	/Encoding isolatin1encoding def
    currentdict end
definefont pop
/Bookman-LightItalic-latin1
    /Bookman-LightItalic findfont
    dup length dict begin
	{1 index /FID ne {def} {pop pop} ifelse} forall
	/Encoding isolatin1encoding def
    currentdict end
definefont pop
/Bookman-Demi-latin1
    /Bookman-Demi findfont
    dup length dict begin
	{1 index /FID ne {def} {pop pop} ifelse} forall
	/Encoding isolatin1encoding def
    currentdict end
definefont pop
/Bookman-DemiItalic-latin1
    /Bookman-DemiItalic findfont
    dup length dict begin
	{1 index /FID ne {def} {pop pop} ifelse} forall
	/Encoding isolatin1encoding def
    currentdict end
definefont pop
/Courier-latin1
    /Courier findfont
    dup length dict begin
	{1 index /FID ne {def} {pop pop} ifelse} forall
	/Encoding isolatin1encoding def
    currentdict end
definefont pop
/Courier-Oblique-latin1
    /Courier-Oblique findfont
    dup length dict begin
	{1 index /FID ne {def} {pop pop} ifelse} forall
	/Encoding isolatin1encoding def
    currentdict end
definefont pop
/Courier-Bold-latin1
    /Courier-Bold findfont
    dup length dict begin
	{1 index /FID ne {def} {pop pop} ifelse} forall
	/Encoding isolatin1encoding def
    currentdict end
definefont pop
/Courier-BoldOblique-latin1
    /Courier-BoldOblique findfont
    dup length dict begin
	{1 index /FID ne {def} {pop pop} ifelse} forall
	/Encoding isolatin1encoding def
    currentdict end
definefont pop
/Helvetica-latin1
    /Helvetica findfont
    dup length dict begin
	{1 index /FID ne {def} {pop pop} ifelse} forall
	/Encoding isolatin1encoding def
    currentdict end
definefont pop
/Helvetica-Oblique-latin1
    /Helvetica-Oblique findfont
    dup length dict begin
	{1 index /FID ne {def} {pop pop} ifelse} forall
	/Encoding isolatin1encoding def
    currentdict end
definefont pop
/Helvetica-Bold-latin1
    /Helvetica-Bold findfont
    dup length dict begin
	{1 index /FID ne {def} {pop pop} ifelse} forall
	/Encoding isolatin1encoding def
    currentdict end
definefont pop
/Helvetica-BoldOblique-latin1
    /Helvetica-BoldOblique findfont
    dup length dict begin
	{1 index /FID ne {def} {pop pop} ifelse} forall
	/Encoding isolatin1encoding def
    currentdict end
definefont pop
/Helvetica-Narrow-latin1
    /Helvetica-Narrow findfont
    dup length dict begin
	{1 index /FID ne {def} {pop pop} ifelse} forall
	/Encoding isolatin1encoding def
    currentdict end
definefont pop
/Helvetica-Narrow-Oblique-latin1
    /Helvetica-Narrow-Oblique findfont
    dup length dict begin
	{1 index /FID ne {def} {pop pop} ifelse} forall
	/Encoding isolatin1encoding def
    currentdict end
definefont pop
/Helvetica-Narrow-Bold-latin1
    /Helvetica-Narrow-Bold findfont
    dup length dict begin
	{1 index /FID ne {def} {pop pop} ifelse} forall
	/Encoding isolatin1encoding def
    currentdict end
definefont pop
/Helvetica-Narrow-BoldOblique-latin1
    /Helvetica-Narrow-BoldOblique findfont
    dup length dict begin
	{1 index /FID ne {def} {pop pop} ifelse} forall
	/Encoding isolatin1encoding def
    currentdict end
definefont pop
/NewCenturySchlbk-Roman-latin1
    /NewCenturySchlbk-Roman findfont
    dup length dict begin
	{1 index /FID ne {def} {pop pop} ifelse} forall
	/Encoding isolatin1encoding def
    currentdict end
definefont pop
/NewCenturySchlbk-Italic-latin1
    /NewCenturySchlbk-Italic findfont
    dup length dict begin
	{1 index /FID ne {def} {pop pop} ifelse} forall
	/Encoding isolatin1encoding def
    currentdict end
definefont pop
/NewCenturySchlbk-Bold-latin1
    /NewCenturySchlbk-Bold findfont
    dup length dict begin
	{1 index /FID ne {def} {pop pop} ifelse} forall
	/Encoding isolatin1encoding def
    currentdict end
definefont pop
/NewCenturySchlbk-BoldItalic-latin1
    /NewCenturySchlbk-BoldItalic findfont
    dup length dict begin
	{1 index /FID ne {def} {pop pop} ifelse} forall
	/Encoding isolatin1encoding def
    currentdict end
definefont pop
/Palatino-Roman-latin1
    /Palatino-Roman findfont
    dup length dict begin
	{1 index /FID ne {def} {pop pop} ifelse} forall
	/Encoding isolatin1encoding def
    currentdict end
definefont pop
/Palatino-Italic-latin1
    /Palatino-Italic findfont
    dup length dict begin
	{1 index /FID ne {def} {pop pop} ifelse} forall
	/Encoding isolatin1encoding def
    currentdict end
definefont pop
/Palatino-Bold-latin1
    /Palatino-Bold findfont
    dup length dict begin
	{1 index /FID ne {def} {pop pop} ifelse} forall
	/Encoding isolatin1encoding def
    currentdict end
definefont pop
/Palatino-BoldItalic-latin1
    /Palatino-BoldItalic findfont
    dup length dict begin
	{1 index /FID ne {def} {pop pop} ifelse} forall
	/Encoding isolatin1encoding def
    currentdict end
definefont pop
/Symbol-latin1
    /Symbol findfont
definefont pop
/ZapfChancery-MediumItalic-latin1
    /ZapfChancery-MediumItalic findfont
    dup length dict begin
	{1 index /FID ne {def} {pop pop} ifelse} forall
	/Encoding isolatin1encoding def
    currentdict end
definefont pop
/ZapfDingbats-latin1
    /ZapfDingbats findfont
    dup length dict begin
	{1 index /FID ne {def} {pop pop} ifelse} forall
	/Encoding isolatin1encoding def
    currentdict end
definefont pop
28.346000 -28.346000 scale
-28.030000 -206.315000 translate
%%EndProlog


0.100000 slw
[] 0 sd
[] 0 sd
0 slc
0 slj
0.100000 slw
0 slc
0 slj
[] 0 sd
0.576471 1.000000 0.258824 srgb
n 31.480000 190.590000 0.450000 0.450000 0 360 ellipse f
0.000000 0.000000 0.000000 srgb
n 31.480000 190.590000 0.450000 0.450000 0 360 ellipse cp s
0 slc
0 slj
[] 0 sd
n 31.480000 190.590000 0.450000 0.450000 0 360 ellipse cp s
0.100000 slw
[] 0 sd
[] 0 sd
0 slc
0 slj
0.100000 slw
0 slc
0 slj
[] 0 sd
1.000000 1.000000 1.000000 srgb
n 31.480000 192.590000 0.450000 0.450000 0 360 ellipse f
0.000000 0.000000 0.000000 srgb
n 31.480000 192.590000 0.450000 0.450000 0 360 ellipse cp s
0 slc
0 slj
[] 0 sd
n 31.480000 192.590000 0.450000 0.450000 0 360 ellipse cp s
0.100000 slw
[] 0 sd
[] 0 sd
0 slc
0 slj
0.100000 slw
0 slc
0 slj
[] 0 sd
1.000000 1.000000 1.000000 srgb
n 33.480000 190.590000 0.450000 0.450000 0 360 ellipse f
0.000000 0.000000 0.000000 srgb
n 33.480000 190.590000 0.450000 0.450000 0 360 ellipse cp s
0 slc
0 slj
[] 0 sd
n 33.480000 190.590000 0.450000 0.450000 0 360 ellipse cp s
0.100000 slw
[] 0 sd
[] 0 sd
0 slc
0 slj
0.100000 slw
0 slc
0 slj
[] 0 sd
1.000000 1.000000 1.000000 srgb
n 33.480000 192.590000 0.450000 0.450000 0 360 ellipse f
0.000000 0.000000 0.000000 srgb
n 33.480000 192.590000 0.450000 0.450000 0 360 ellipse cp s
0 slc
0 slj
[] 0 sd
n 33.480000 192.590000 0.450000 0.450000 0 360 ellipse cp s
0.100000 slw
[] 0 sd
[] 0 sd
0 slc
0 slj
0.100000 slw
0 slc
0 slj
[] 0 sd
1.000000 1.000000 1.000000 srgb
n 31.480000 194.590000 0.450000 0.450000 0 360 ellipse f
0.000000 0.000000 0.000000 srgb
n 31.480000 194.590000 0.450000 0.450000 0 360 ellipse cp s
0 slc
0 slj
[] 0 sd
n 31.480000 194.590000 0.450000 0.450000 0 360 ellipse cp s
0.100000 slw
[] 0 sd
[] 0 sd
0 slc
0 slj
0.100000 slw
0 slc
0 slj
[] 0 sd
1.000000 0.431373 0.596078 srgb
n 31.480000 196.590000 0.450000 0.450000 0 360 ellipse f
0.000000 0.000000 0.000000 srgb
n 31.480000 196.590000 0.450000 0.450000 0 360 ellipse cp s
0 slc
0 slj
[] 0 sd
n 31.480000 196.590000 0.450000 0.450000 0 360 ellipse cp s
0.100000 slw
[] 0 sd
[] 0 sd
0 slc
0 slj
0.100000 slw
0 slc
0 slj
[] 0 sd
1.000000 1.000000 1.000000 srgb
n 33.480000 194.590000 0.450000 0.450000 0 360 ellipse f
0.000000 0.000000 0.000000 srgb
n 33.480000 194.590000 0.450000 0.450000 0 360 ellipse cp s
0 slc
0 slj
[] 0 sd
n 33.480000 194.590000 0.450000 0.450000 0 360 ellipse cp s
0.100000 slw
[] 0 sd
[] 0 sd
0 slc
0 slj
0.100000 slw
0 slc
0 slj
[] 0 sd
1.000000 1.000000 1.000000 srgb
n 33.480000 196.590000 0.450000 0.450000 0 360 ellipse f
0.000000 0.000000 0.000000 srgb
n 33.480000 196.590000 0.450000 0.450000 0 360 ellipse cp s
0 slc
0 slj
[] 0 sd
n 33.480000 196.590000 0.450000 0.450000 0 360 ellipse cp s
0.100000 slw
[] 0 sd
[] 0 sd
0 slc
0 slj
0.100000 slw
0 slc
0 slj
[] 0 sd
1.000000 1.000000 1.000000 srgb
n 35.480000 190.590000 0.450000 0.450000 0 360 ellipse f
0.000000 0.000000 0.000000 srgb
n 35.480000 190.590000 0.450000 0.450000 0 360 ellipse cp s
0 slc
0 slj
[] 0 sd
n 35.480000 190.590000 0.450000 0.450000 0 360 ellipse cp s
0.100000 slw
[] 0 sd
[] 0 sd
0 slc
0 slj
0.100000 slw
0 slc
0 slj
[] 0 sd
1.000000 1.000000 1.000000 srgb
n 35.480000 192.590000 0.450000 0.450000 0 360 ellipse f
0.000000 0.000000 0.000000 srgb
n 35.480000 192.590000 0.450000 0.450000 0 360 ellipse cp s
0 slc
0 slj
[] 0 sd
n 35.480000 192.590000 0.450000 0.450000 0 360 ellipse cp s
0.100000 slw
[] 0 sd
[] 0 sd
0 slc
0 slj
0.100000 slw
0 slc
0 slj
[] 0 sd
1.000000 1.000000 1.000000 srgb
n 37.480000 190.590000 0.450000 0.450000 0 360 ellipse f
0.000000 0.000000 0.000000 srgb
n 37.480000 190.590000 0.450000 0.450000 0 360 ellipse cp s
0 slc
0 slj
[] 0 sd
n 37.480000 190.590000 0.450000 0.450000 0 360 ellipse cp s
0.100000 slw
[] 0 sd
[] 0 sd
0 slc
0 slj
0.100000 slw
0 slc
0 slj
[] 0 sd
1.000000 1.000000 1.000000 srgb
n 37.480000 192.590000 0.450000 0.450000 0 360 ellipse f
0.000000 0.000000 0.000000 srgb
n 37.480000 192.590000 0.450000 0.450000 0 360 ellipse cp s
0 slc
0 slj
[] 0 sd
n 37.480000 192.590000 0.450000 0.450000 0 360 ellipse cp s
0.100000 slw
[] 0 sd
[] 0 sd
0 slc
0 slj
0.100000 slw
0 slc
0 slj
[] 0 sd
1.000000 1.000000 1.000000 srgb
n 35.480000 194.590000 0.450000 0.450000 0 360 ellipse f
0.000000 0.000000 0.000000 srgb
n 35.480000 194.590000 0.450000 0.450000 0 360 ellipse cp s
0 slc
0 slj
[] 0 sd
n 35.480000 194.590000 0.450000 0.450000 0 360 ellipse cp s
0.100000 slw
[] 0 sd
[] 0 sd
0 slc
0 slj
0.100000 slw
0 slc
0 slj
[] 0 sd
1.000000 1.000000 1.000000 srgb
n 35.480000 196.590000 0.450000 0.450000 0 360 ellipse f
0.000000 0.000000 0.000000 srgb
n 35.480000 196.590000 0.450000 0.450000 0 360 ellipse cp s
0 slc
0 slj
[] 0 sd
n 35.480000 196.590000 0.450000 0.450000 0 360 ellipse cp s
0.100000 slw
[] 0 sd
[] 0 sd
0 slc
0 slj
0.100000 slw
0 slc
0 slj
[] 0 sd
1.000000 0.000000 0.000000 srgb
n 37.480000 194.590000 0.450000 0.450000 0 360 ellipse f
0.000000 0.000000 0.000000 srgb
n 37.480000 194.590000 0.450000 0.450000 0 360 ellipse cp s
0 slc
0 slj
[] 0 sd
n 37.480000 194.590000 0.450000 0.450000 0 360 ellipse cp s
0.100000 slw
[] 0 sd
[] 0 sd
0 slc
0 slj
0.100000 slw
0 slc
0 slj
[] 0 sd
1.000000 0.431373 0.596078 srgb
n 37.480000 196.590000 0.450000 0.450000 0 360 ellipse f
0.000000 0.000000 0.000000 srgb
n 37.480000 196.590000 0.450000 0.450000 0 360 ellipse cp s
0 slc
0 slj
[] 0 sd
n 37.480000 196.590000 0.450000 0.450000 0 360 ellipse cp s
0.100000 slw
[] 0 sd
[] 0 sd
0 slc
0 slj
0.100000 slw
0 slc
0 slj
[] 0 sd
1.000000 0.431373 0.596078 srgb
n 31.480000 198.590000 0.450000 0.450000 0 360 ellipse f
0.000000 0.000000 0.000000 srgb
n 31.480000 198.590000 0.450000 0.450000 0 360 ellipse cp s
0 slc
0 slj
[] 0 sd
n 31.480000 198.590000 0.450000 0.450000 0 360 ellipse cp s
0.100000 slw
[] 0 sd
[] 0 sd
0 slc
0 slj
0.100000 slw
0 slc
0 slj
[] 0 sd
n 31.480000 200.590000 0.450000 0.450000 0 360 ellipse f
n 31.480000 200.590000 0.450000 0.450000 0 360 ellipse cp s
0 slc
0 slj
[] 0 sd
n 31.480000 200.590000 0.450000 0.450000 0 360 ellipse cp s
0.100000 slw
[] 0 sd
[] 0 sd
0 slc
0 slj
0.100000 slw
0 slc
0 slj
[] 0 sd
1.000000 1.000000 1.000000 srgb
n 33.480000 198.590000 0.450000 0.450000 0 360 ellipse f
0.000000 0.000000 0.000000 srgb
n 33.480000 198.590000 0.450000 0.450000 0 360 ellipse cp s
0 slc
0 slj
[] 0 sd
n 33.480000 198.590000 0.450000 0.450000 0 360 ellipse cp s
0.100000 slw
[] 0 sd
[] 0 sd
0 slc
0 slj
0.100000 slw
0 slc
0 slj
[] 0 sd
n 33.480000 200.590000 0.450000 0.450000 0 360 ellipse f
n 33.480000 200.590000 0.450000 0.450000 0 360 ellipse cp s
0 slc
0 slj
[] 0 sd
n 33.480000 200.590000 0.450000 0.450000 0 360 ellipse cp s
0.100000 slw
[] 0 sd
[] 0 sd
0 slc
0 slj
0.100000 slw
0 slc
0 slj
[] 0 sd
1.000000 1.000000 1.000000 srgb
n 31.480000 202.590000 0.450000 0.450000 0 360 ellipse f
0.000000 0.000000 0.000000 srgb
n 31.480000 202.590000 0.450000 0.450000 0 360 ellipse cp s
0 slc
0 slj
[] 0 sd
n 31.480000 202.590000 0.450000 0.450000 0 360 ellipse cp s
0.100000 slw
[] 0 sd
[] 0 sd
0 slc
0 slj
0.100000 slw
0 slc
0 slj
[] 0 sd
1.000000 1.000000 1.000000 srgb
n 31.480000 204.590000 0.450000 0.450000 0 360 ellipse f
0.000000 0.000000 0.000000 srgb
n 31.480000 204.590000 0.450000 0.450000 0 360 ellipse cp s
0 slc
0 slj
[] 0 sd
n 31.480000 204.590000 0.450000 0.450000 0 360 ellipse cp s
0.100000 slw
[] 0 sd
[] 0 sd
0 slc
0 slj
0.100000 slw
0 slc
0 slj
[] 0 sd
1.000000 1.000000 1.000000 srgb
n 33.480000 202.590000 0.450000 0.450000 0 360 ellipse f
0.000000 0.000000 0.000000 srgb
n 33.480000 202.590000 0.450000 0.450000 0 360 ellipse cp s
0 slc
0 slj
[] 0 sd
n 33.480000 202.590000 0.450000 0.450000 0 360 ellipse cp s
0.100000 slw
[] 0 sd
[] 0 sd
0 slc
0 slj
0.100000 slw
0 slc
0 slj
[] 0 sd
1.000000 1.000000 1.000000 srgb
n 33.480000 204.590000 0.450000 0.450000 0 360 ellipse f
0.000000 0.000000 0.000000 srgb
n 33.480000 204.590000 0.450000 0.450000 0 360 ellipse cp s
0 slc
0 slj
[] 0 sd
n 33.480000 204.590000 0.450000 0.450000 0 360 ellipse cp s
0.100000 slw
[] 0 sd
[] 0 sd
0 slc
0 slj
0.100000 slw
0 slc
0 slj
[] 0 sd
1.000000 1.000000 1.000000 srgb
n 35.480000 198.590000 0.450000 0.450000 0 360 ellipse f
0.000000 0.000000 0.000000 srgb
n 35.480000 198.590000 0.450000 0.450000 0 360 ellipse cp s
0 slc
0 slj
[] 0 sd
n 35.480000 198.590000 0.450000 0.450000 0 360 ellipse cp s
0.100000 slw
[] 0 sd
[] 0 sd
0 slc
0 slj
0.100000 slw
0 slc
0 slj
[] 0 sd
n 35.480000 200.590000 0.450000 0.450000 0 360 ellipse f
n 35.480000 200.590000 0.450000 0.450000 0 360 ellipse cp s
0 slc
0 slj
[] 0 sd
n 35.480000 200.590000 0.450000 0.450000 0 360 ellipse cp s
0.100000 slw
[] 0 sd
[] 0 sd
0 slc
0 slj
0.100000 slw
0 slc
0 slj
[] 0 sd
1.000000 0.431373 0.596078 srgb
n 37.480000 198.590000 0.450000 0.450000 0 360 ellipse f
0.000000 0.000000 0.000000 srgb
n 37.480000 198.590000 0.450000 0.450000 0 360 ellipse cp s
0 slc
0 slj
[] 0 sd
n 37.480000 198.590000 0.450000 0.450000 0 360 ellipse cp s
0.100000 slw
[] 0 sd
[] 0 sd
0 slc
0 slj
0.100000 slw
0 slc
0 slj
[] 0 sd
n 37.480000 200.590000 0.450000 0.450000 0 360 ellipse f
n 37.480000 200.590000 0.450000 0.450000 0 360 ellipse cp s
0 slc
0 slj
[] 0 sd
n 37.480000 200.590000 0.450000 0.450000 0 360 ellipse cp s
0.100000 slw
[] 0 sd
[] 0 sd
0 slc
0 slj
0.100000 slw
0 slc
0 slj
[] 0 sd
1.000000 1.000000 1.000000 srgb
n 35.480000 202.590000 0.450000 0.450000 0 360 ellipse f
0.000000 0.000000 0.000000 srgb
n 35.480000 202.590000 0.450000 0.450000 0 360 ellipse cp s
0 slc
0 slj
[] 0 sd
n 35.480000 202.590000 0.450000 0.450000 0 360 ellipse cp s
0.100000 slw
[] 0 sd
[] 0 sd
0 slc
0 slj
0.100000 slw
0 slc
0 slj
[] 0 sd
1.000000 1.000000 1.000000 srgb
n 35.480000 204.590000 0.450000 0.450000 0 360 ellipse f
0.000000 0.000000 0.000000 srgb
n 35.480000 204.590000 0.450000 0.450000 0 360 ellipse cp s
0 slc
0 slj
[] 0 sd
n 35.480000 204.590000 0.450000 0.450000 0 360 ellipse cp s
0.100000 slw
[] 0 sd
[] 0 sd
0 slc
0 slj
0.100000 slw
0 slc
0 slj
[] 0 sd
1.000000 0.431373 0.596078 srgb
n 37.480000 202.590000 0.450000 0.450000 0 360 ellipse f
0.000000 0.000000 0.000000 srgb
n 37.480000 202.590000 0.450000 0.450000 0 360 ellipse cp s
0 slc
0 slj
[] 0 sd
n 37.480000 202.590000 0.450000 0.450000 0 360 ellipse cp s
0.100000 slw
[] 0 sd
[] 0 sd
0 slc
0 slj
0.100000 slw
0 slc
0 slj
[] 0 sd
1.000000 0.431373 0.596078 srgb
n 37.480000 204.590000 0.450000 0.450000 0 360 ellipse f
0.000000 0.000000 0.000000 srgb
n 37.480000 204.590000 0.450000 0.450000 0 360 ellipse cp s
0 slc
0 slj
[] 0 sd
n 37.480000 204.590000 0.450000 0.450000 0 360 ellipse cp s
0.100000 slw
[] 0 sd
[] 0 sd
0 slc
0 slj
0.100000 slw
0 slc
0 slj
[] 0 sd
n 39.480000 190.590000 0.450000 0.450000 0 360 ellipse f
n 39.480000 190.590000 0.450000 0.450000 0 360 ellipse cp s
0 slc
0 slj
[] 0 sd
n 39.480000 190.590000 0.450000 0.450000 0 360 ellipse cp s
0.100000 slw
[] 0 sd
[] 0 sd
0 slc
0 slj
0.100000 slw
0 slc
0 slj
[] 0 sd
n 39.480000 192.590000 0.450000 0.450000 0 360 ellipse f
n 39.480000 192.590000 0.450000 0.450000 0 360 ellipse cp s
0 slc
0 slj
[] 0 sd
n 39.480000 192.590000 0.450000 0.450000 0 360 ellipse cp s
0.100000 slw
[] 0 sd
[] 0 sd
0 slc
0 slj
0.100000 slw
0 slc
0 slj
[] 0 sd
1.000000 1.000000 1.000000 srgb
n 41.480000 190.590000 0.450000 0.450000 0 360 ellipse f
0.000000 0.000000 0.000000 srgb
n 41.480000 190.590000 0.450000 0.450000 0 360 ellipse cp s
0 slc
0 slj
[] 0 sd
n 41.480000 190.590000 0.450000 0.450000 0 360 ellipse cp s
0.100000 slw
[] 0 sd
[] 0 sd
0 slc
0 slj
0.100000 slw
0 slc
0 slj
[] 0 sd
1.000000 1.000000 1.000000 srgb
n 41.480000 192.590000 0.450000 0.450000 0 360 ellipse f
0.000000 0.000000 0.000000 srgb
n 41.480000 192.590000 0.450000 0.450000 0 360 ellipse cp s
0 slc
0 slj
[] 0 sd
n 41.480000 192.590000 0.450000 0.450000 0 360 ellipse cp s
0.100000 slw
[] 0 sd
[] 0 sd
0 slc
0 slj
0.100000 slw
0 slc
0 slj
[] 0 sd
1.000000 0.000000 0.000000 srgb
n 39.480000 194.590000 0.450000 0.450000 0 360 ellipse f
0.000000 0.000000 0.000000 srgb
n 39.480000 194.590000 0.450000 0.450000 0 360 ellipse cp s
0 slc
0 slj
[] 0 sd
n 39.480000 194.590000 0.450000 0.450000 0 360 ellipse cp s
0.100000 slw
[] 0 sd
[] 0 sd
0 slc
0 slj
0.100000 slw
0 slc
0 slj
[] 0 sd
1.000000 0.431373 0.596078 srgb
n 39.480000 196.590000 0.450000 0.450000 0 360 ellipse f
0.000000 0.000000 0.000000 srgb
n 39.480000 196.590000 0.450000 0.450000 0 360 ellipse cp s
0 slc
0 slj
[] 0 sd
n 39.480000 196.590000 0.450000 0.450000 0 360 ellipse cp s
0.100000 slw
[] 0 sd
[] 0 sd
0 slc
0 slj
0.100000 slw
0 slc
0 slj
[] 0 sd
1.000000 1.000000 1.000000 srgb
n 41.480000 194.590000 0.450000 0.450000 0 360 ellipse f
0.000000 0.000000 0.000000 srgb
n 41.480000 194.590000 0.450000 0.450000 0 360 ellipse cp s
0 slc
0 slj
[] 0 sd
n 41.480000 194.590000 0.450000 0.450000 0 360 ellipse cp s
0.100000 slw
[] 0 sd
[] 0 sd
0 slc
0 slj
0.100000 slw
0 slc
0 slj
[] 0 sd
1.000000 1.000000 1.000000 srgb
n 41.480000 196.590000 0.450000 0.450000 0 360 ellipse f
0.000000 0.000000 0.000000 srgb
n 41.480000 196.590000 0.450000 0.450000 0 360 ellipse cp s
0 slc
0 slj
[] 0 sd
n 41.480000 196.590000 0.450000 0.450000 0 360 ellipse cp s
0.100000 slw
[] 0 sd
[] 0 sd
0 slc
0 slj
0.100000 slw
0 slc
0 slj
[] 0 sd
1.000000 1.000000 1.000000 srgb
n 43.480000 190.590000 0.450000 0.450000 0 360 ellipse f
0.000000 0.000000 0.000000 srgb
n 43.480000 190.590000 0.450000 0.450000 0 360 ellipse cp s
0 slc
0 slj
[] 0 sd
n 43.480000 190.590000 0.450000 0.450000 0 360 ellipse cp s
0.100000 slw
[] 0 sd
[] 0 sd
0 slc
0 slj
0.100000 slw
0 slc
0 slj
[] 0 sd
1.000000 1.000000 1.000000 srgb
n 43.480000 192.590000 0.450000 0.450000 0 360 ellipse f
0.000000 0.000000 0.000000 srgb
n 43.480000 192.590000 0.450000 0.450000 0 360 ellipse cp s
0 slc
0 slj
[] 0 sd
n 43.480000 192.590000 0.450000 0.450000 0 360 ellipse cp s
0.100000 slw
[] 0 sd
[] 0 sd
0 slc
0 slj
0.100000 slw
0 slc
0 slj
[] 0 sd
0.486275 0.862745 1.000000 srgb
n 45.480000 190.590000 0.450000 0.450000 0 360 ellipse f
0.000000 0.000000 0.000000 srgb
n 45.480000 190.590000 0.450000 0.450000 0 360 ellipse cp s
0 slc
0 slj
[] 0 sd
n 45.480000 190.590000 0.450000 0.450000 0 360 ellipse cp s
0.100000 slw
[] 0 sd
[] 0 sd
0 slc
0 slj
0.100000 slw
0 slc
0 slj
[] 0 sd
1.000000 1.000000 1.000000 srgb
n 45.480000 192.590000 0.450000 0.450000 0 360 ellipse f
0.000000 0.000000 0.000000 srgb
n 45.480000 192.590000 0.450000 0.450000 0 360 ellipse cp s
0 slc
0 slj
[] 0 sd
n 45.480000 192.590000 0.450000 0.450000 0 360 ellipse cp s
0.100000 slw
[] 0 sd
[] 0 sd
0 slc
0 slj
0.100000 slw
0 slc
0 slj
[] 0 sd
1.000000 1.000000 1.000000 srgb
n 43.480000 194.590000 0.450000 0.450000 0 360 ellipse f
0.000000 0.000000 0.000000 srgb
n 43.480000 194.590000 0.450000 0.450000 0 360 ellipse cp s
0 slc
0 slj
[] 0 sd
n 43.480000 194.590000 0.450000 0.450000 0 360 ellipse cp s
0.100000 slw
[] 0 sd
[] 0 sd
0 slc
0 slj
0.100000 slw
0 slc
0 slj
[] 0 sd
1.000000 1.000000 1.000000 srgb
n 43.480000 196.590000 0.450000 0.450000 0 360 ellipse f
0.000000 0.000000 0.000000 srgb
n 43.480000 196.590000 0.450000 0.450000 0 360 ellipse cp s
0 slc
0 slj
[] 0 sd
n 43.480000 196.590000 0.450000 0.450000 0 360 ellipse cp s
0.100000 slw
[] 0 sd
[] 0 sd
0 slc
0 slj
0.100000 slw
0 slc
0 slj
[] 0 sd
1.000000 1.000000 1.000000 srgb
n 45.480000 194.590000 0.450000 0.450000 0 360 ellipse f
0.000000 0.000000 0.000000 srgb
n 45.480000 194.590000 0.450000 0.450000 0 360 ellipse cp s
0 slc
0 slj
[] 0 sd
n 45.480000 194.590000 0.450000 0.450000 0 360 ellipse cp s
0.100000 slw
[] 0 sd
[] 0 sd
0 slc
0 slj
0.100000 slw
0 slc
0 slj
[] 0 sd
1.000000 0.431373 0.596078 srgb
n 45.480000 196.590000 0.450000 0.450000 0 360 ellipse f
0.000000 0.000000 0.000000 srgb
n 45.480000 196.590000 0.450000 0.450000 0 360 ellipse cp s
0 slc
0 slj
[] 0 sd
n 45.480000 196.590000 0.450000 0.450000 0 360 ellipse cp s
0.100000 slw
[] 0 sd
[] 0 sd
0 slc
0 slj
0.100000 slw
0 slc
0 slj
[] 0 sd
1.000000 0.431373 0.596078 srgb
n 39.480000 198.590000 0.450000 0.450000 0 360 ellipse f
0.000000 0.000000 0.000000 srgb
n 39.480000 198.590000 0.450000 0.450000 0 360 ellipse cp s
0 slc
0 slj
[] 0 sd
n 39.480000 198.590000 0.450000 0.450000 0 360 ellipse cp s
0.100000 slw
[] 0 sd
[] 0 sd
0 slc
0 slj
0.100000 slw
0 slc
0 slj
[] 0 sd
n 39.480000 200.590000 0.450000 0.450000 0 360 ellipse f
n 39.480000 200.590000 0.450000 0.450000 0 360 ellipse cp s
0 slc
0 slj
[] 0 sd
n 39.480000 200.590000 0.450000 0.450000 0 360 ellipse cp s
0.100000 slw
[] 0 sd
[] 0 sd
0 slc
0 slj
0.100000 slw
0 slc
0 slj
[] 0 sd
1.000000 1.000000 1.000000 srgb
n 41.480000 198.590000 0.450000 0.450000 0 360 ellipse f
0.000000 0.000000 0.000000 srgb
n 41.480000 198.590000 0.450000 0.450000 0 360 ellipse cp s
0 slc
0 slj
[] 0 sd
n 41.480000 198.590000 0.450000 0.450000 0 360 ellipse cp s
0.100000 slw
[] 0 sd
[] 0 sd
0 slc
0 slj
0.100000 slw
0 slc
0 slj
[] 0 sd
n 41.480000 200.590000 0.450000 0.450000 0 360 ellipse f
n 41.480000 200.590000 0.450000 0.450000 0 360 ellipse cp s
0 slc
0 slj
[] 0 sd
n 41.480000 200.590000 0.450000 0.450000 0 360 ellipse cp s
0.100000 slw
[] 0 sd
[] 0 sd
0 slc
0 slj
0.100000 slw
0 slc
0 slj
[] 0 sd
1.000000 0.431373 0.596078 srgb
n 39.480000 202.590000 0.450000 0.450000 0 360 ellipse f
0.000000 0.000000 0.000000 srgb
n 39.480000 202.590000 0.450000 0.450000 0 360 ellipse cp s
0 slc
0 slj
[] 0 sd
n 39.480000 202.590000 0.450000 0.450000 0 360 ellipse cp s
0.100000 slw
[] 0 sd
[] 0 sd
0 slc
0 slj
0.100000 slw
0 slc
0 slj
[] 0 sd
1.000000 0.431373 0.596078 srgb
n 39.480000 204.590000 0.450000 0.450000 0 360 ellipse f
0.000000 0.000000 0.000000 srgb
n 39.480000 204.590000 0.450000 0.450000 0 360 ellipse cp s
0 slc
0 slj
[] 0 sd
n 39.480000 204.590000 0.450000 0.450000 0 360 ellipse cp s
0.100000 slw
[] 0 sd
[] 0 sd
0 slc
0 slj
0.100000 slw
0 slc
0 slj
[] 0 sd
1.000000 1.000000 1.000000 srgb
n 41.480000 202.590000 0.450000 0.450000 0 360 ellipse f
0.000000 0.000000 0.000000 srgb
n 41.480000 202.590000 0.450000 0.450000 0 360 ellipse cp s
0 slc
0 slj
[] 0 sd
n 41.480000 202.590000 0.450000 0.450000 0 360 ellipse cp s
0.100000 slw
[] 0 sd
[] 0 sd
0 slc
0 slj
0.100000 slw
0 slc
0 slj
[] 0 sd
1.000000 1.000000 1.000000 srgb
n 41.480000 204.590000 0.450000 0.450000 0 360 ellipse f
0.000000 0.000000 0.000000 srgb
n 41.480000 204.590000 0.450000 0.450000 0 360 ellipse cp s
0 slc
0 slj
[] 0 sd
n 41.480000 204.590000 0.450000 0.450000 0 360 ellipse cp s
0.100000 slw
[] 0 sd
[] 0 sd
0 slc
0 slj
0.100000 slw
0 slc
0 slj
[] 0 sd
1.000000 1.000000 1.000000 srgb
n 43.480000 198.590000 0.450000 0.450000 0 360 ellipse f
0.000000 0.000000 0.000000 srgb
n 43.480000 198.590000 0.450000 0.450000 0 360 ellipse cp s
0 slc
0 slj
[] 0 sd
n 43.480000 198.590000 0.450000 0.450000 0 360 ellipse cp s
0.100000 slw
[] 0 sd
[] 0 sd
0 slc
0 slj
0.100000 slw
0 slc
0 slj
[] 0 sd
n 43.480000 200.590000 0.450000 0.450000 0 360 ellipse f
n 43.480000 200.590000 0.450000 0.450000 0 360 ellipse cp s
0 slc
0 slj
[] 0 sd
n 43.480000 200.590000 0.450000 0.450000 0 360 ellipse cp s
0.100000 slw
[] 0 sd
[] 0 sd
0 slc
0 slj
0.100000 slw
0 slc
0 slj
[] 0 sd
1.000000 0.431373 0.596078 srgb
n 45.480000 198.590000 0.450000 0.450000 0 360 ellipse f
0.000000 0.000000 0.000000 srgb
n 45.480000 198.590000 0.450000 0.450000 0 360 ellipse cp s
0 slc
0 slj
[] 0 sd
n 45.480000 198.590000 0.450000 0.450000 0 360 ellipse cp s
0.100000 slw
[] 0 sd
[] 0 sd
0 slc
0 slj
0.100000 slw
0 slc
0 slj
[] 0 sd
n 45.480000 200.590000 0.450000 0.450000 0 360 ellipse f
n 45.480000 200.590000 0.450000 0.450000 0 360 ellipse cp s
0 slc
0 slj
[] 0 sd
n 45.480000 200.590000 0.450000 0.450000 0 360 ellipse cp s
0.100000 slw
[] 0 sd
[] 0 sd
0 slc
0 slj
0.100000 slw
0 slc
0 slj
[] 0 sd
1.000000 1.000000 1.000000 srgb
n 43.480000 202.590000 0.450000 0.450000 0 360 ellipse f
0.000000 0.000000 0.000000 srgb
n 43.480000 202.590000 0.450000 0.450000 0 360 ellipse cp s
0 slc
0 slj
[] 0 sd
n 43.480000 202.590000 0.450000 0.450000 0 360 ellipse cp s
0.100000 slw
[] 0 sd
[] 0 sd
0 slc
0 slj
0.100000 slw
0 slc
0 slj
[] 0 sd
1.000000 1.000000 1.000000 srgb
n 43.480000 204.590000 0.450000 0.450000 0 360 ellipse f
0.000000 0.000000 0.000000 srgb
n 43.480000 204.590000 0.450000 0.450000 0 360 ellipse cp s
0 slc
0 slj
[] 0 sd
n 43.480000 204.590000 0.450000 0.450000 0 360 ellipse cp s
0.100000 slw
[] 0 sd
[] 0 sd
0 slc
0 slj
0.100000 slw
0 slc
0 slj
[] 0 sd
1.000000 1.000000 1.000000 srgb
n 45.480000 202.590000 0.450000 0.450000 0 360 ellipse f
0.000000 0.000000 0.000000 srgb
n 45.480000 202.590000 0.450000 0.450000 0 360 ellipse cp s
0 slc
0 slj
[] 0 sd
n 45.480000 202.590000 0.450000 0.450000 0 360 ellipse cp s
0.100000 slw
[] 0 sd
[] 0 sd
0 slc
0 slj
0.100000 slw
0 slc
0 slj
[] 0 sd
1.000000 1.000000 1.000000 srgb
n 45.480000 204.590000 0.450000 0.450000 0 360 ellipse f
0.000000 0.000000 0.000000 srgb
n 45.480000 204.590000 0.450000 0.450000 0 360 ellipse cp s
0 slc
0 slj
[] 0 sd
n 45.480000 204.590000 0.450000 0.450000 0 360 ellipse cp s
/Helvetica-latin1 ff 0.790222 scf sf
(0) 28.030000 190.914222 m
 gs 1 -1 sc sh gr
/Helvetica-latin1 ff 0.790222 scf sf
(1) 28.030000 192.914222 m
 gs 1 -1 sc sh gr
/Helvetica-latin1 ff 0.790222 scf sf
(2) 28.030000 194.914222 m
 gs 1 -1 sc sh gr
/Helvetica-latin1 ff 0.790222 scf sf
(3) 28.030000 196.914222 m
 gs 1 -1 sc sh gr
/Helvetica-latin1 ff 0.790222 scf sf
(4) 28.030000 198.914222 m
 gs 1 -1 sc sh gr
/Helvetica-latin1 ff 0.790222 scf sf
(5) 28.030000 200.914222 m
 gs 1 -1 sc sh gr
/Helvetica-latin1 ff 0.790222 scf sf
(6) 28.030000 202.914222 m
 gs 1 -1 sc sh gr
/Helvetica-latin1 ff 0.790222 scf sf
(7) 28.030000 204.914222 m
 gs 1 -1 sc sh gr
/Helvetica-latin1 ff 0.790222 scf sf
(0) 31.030000 188.914222 m
 gs 1 -1 sc sh gr
/Helvetica-latin1 ff 0.790222 scf sf
(1) 33.030000 188.914222 m
 gs 1 -1 sc sh gr
/Helvetica-latin1 ff 0.790222 scf sf
(2) 35.030000 188.914222 m
 gs 1 -1 sc sh gr
/Helvetica-latin1 ff 0.790222 scf sf
(3) 37.030000 188.914222 m
 gs 1 -1 sc sh gr
/Helvetica-latin1 ff 0.790222 scf sf
(4) 39.030000 188.914222 m
 gs 1 -1 sc sh gr
/Helvetica-latin1 ff 0.790222 scf sf
(5) 41.030000 188.914222 m
 gs 1 -1 sc sh gr
/Helvetica-latin1 ff 0.790222 scf sf
(6) 43.030000 188.914222 m
 gs 1 -1 sc sh gr
/Helvetica-latin1 ff 0.790222 scf sf
(7) 45.030000 188.914222 m
 gs 1 -1 sc sh gr
0.300000 slw
[] 0 sd
[] 0 sd
0 slc
0.576471 1.000000 0.258824 srgb
n 38.454300 189.165000 m 38.454300 206.165000 l s
0.300000 slw
[] 0 sd
[] 0 sd
0 slc
n 29.065400 197.635000 m 49.065400 197.635000 l s
0.200000 slw
[] 0 sd
[] 0 sd
0 slc
1.000000 0.607843 0.423529 srgb
n 31.480000 197.090488 m 31.480000 198.089512 l s
0.200000 slw
[] 0 sd
[] 0 sd
0 slc
n 37.480000 197.090488 m 37.480000 198.089512 l s
0.200000 slw
[] 0 sd
[] 0 sd
0 slc
n 37.480000 195.090488 m 37.480000 196.089512 l s
0.200000 slw
[] 0 sd
[] 0 sd
0 slc
1.000000 0.000000 0.000000 srgb
n 37.980488 194.590000 m 38.979512 194.590000 l s
0.200000 slw
[] 0 sd
[] 0 sd
0 slc
1.000000 0.607843 0.423529 srgb
n 39.480000 195.090488 m 39.480000 196.089512 l s
0.200000 slw
[] 0 sd
[] 0 sd
0 slc
n 39.480000 197.090488 m 39.480000 198.089512 l s
0.200000 slw
[] 0 sd
[] 0 sd
0 slc
n 37.980488 198.590000 m 38.979512 198.590000 l s
0.200000 slw
[] 0 sd
[] 0 sd
0 slc
n 37.980488 196.590000 m 38.979512 196.590000 l s
0.200000 slw
[] 0 sd
[] 0 sd
0 slc
n 39.126240 194.943760 m 37.833760 196.236240 l s
0.200000 slw
[] 0 sd
[] 0 sd
0 slc
n 37.833760 194.943760 m 39.126240 196.236240 l s
0.200000 slw
[] 0 sd
[] 0 sd
0 slc
n 37.833760 196.943760 m 39.126240 198.236240 l s
0.200000 slw
[] 0 sd
[] 0 sd
0 slc
n 39.126240 196.943760 m 37.833760 198.236240 l s
0.200000 slw
[] 0 sd
[] 0 sd
0 slc
n 45.480000 197.090488 m 45.480000 198.089512 l s
0.200000 slw
[] 0 sd
[] 0 sd
0 slc
n 37.980488 202.590000 m 38.979512 202.590000 l s
0.200000 slw
[] 0 sd
[] 0 sd
0 slc
n 37.980488 204.590000 m 38.979512 204.590000 l s
0.200000 slw
[] 0 sd
[] 0 sd
0 slc
n 37.833760 202.943760 m 39.126240 204.236240 l s
0.200000 slw
[] 0 sd
[] 0 sd
0 slc
n 39.126240 202.943760 m 37.833760 204.236240 l s
0.200000 slw
[] 0 sd
[] 0 sd
0 slc
n 37.480000 203.090488 m 37.480000 204.089512 l s
0.200000 slw
[] 0 sd
[] 0 sd
0 slc
n 39.480000 203.090488 m 39.480000 204.089512 l s
0.200000 slw
[] 0 sd
[] 0 sd
0 slc
n 31.979512 196.590000 m 36.980488 196.590000 l s
0.200000 slw
[] 0 sd
[] 0 sd
0 slc
n 31.979512 198.590000 m 36.980488 198.590000 l s
0.200000 slw
[] 0 sd
[] 0 sd
0 slc
n 36.196852 200.740556 6.282977 6.282977 225.909022 277.221080 ellipse s
0.200000 slw
[] 0 sd
[] 0 sd
0 slc
n 39.979512 198.590000 m 44.980488 198.590000 l s
0.200000 slw
[] 0 sd
[] 0 sd
0 slc
n 39.979512 196.590000 m 44.980488 196.590000 l s
0.200000 slw
[] 0 sd
[] 0 sd
0 slc
n 40.631681 201.134957 6.645512 6.645512 264.328143 312.541755 ellipse s
0.200000 slw
[] 0 sd
[] 0 sd
0 slc
n 31.480000 191.089512 m 31.480000 196.090488 l s
0.200000 slw
[] 0 sd
[] 0 sd
0 slc
n 45.480000 191.089512 m 45.480000 196.090488 l s
0.200000 slw
[] 0 sd
[] 0 sd
0 slc
n 40.490408 187.579592 9.500000 9.500000 111.485949 158.514051 ellipse s
0.200000 slw
[] 0 sd
[] 0 sd
0 slc
1.000000 0.000000 0.000000 srgb
n 37.808201 187.597698 7.000000 7.000000 96.778405 150.601730 ellipse s
0.200000 slw
[] 0 sd
[] 0 sd
0 slc
1.000000 0.607843 0.423529 srgb
n 37.542857 188.652857 8.170114 8.170114 17.213627 72.786373 ellipse s
0.200000 slw
[] 0 sd
[] 0 sd
0 slc
1.000000 0.000000 0.000000 srgb
n 38.252561 186.248841 8.430987 8.430987 34.384681 78.235184 ellipse s
showpage
