%!PS-Adobe-2.0 EPSF-2.0
%%Title: /home/david/src/honours_report/resources/hpastar_graph_abstraction_example.dia
%%Creator: Dia v0.97.3
%%CreationDate: Thu Aug 20 16:51:59 2015
%%For: david
%%Orientation: Portrait
%%Magnification: 1.0000
%%BoundingBox: 0 0 601 511
%%BeginSetup
%%EndSetup
%%EndComments
%%BeginProlog
[ /.notdef /.notdef /.notdef /.notdef /.notdef /.notdef /.notdef /.notdef /.notdef /.notdef
/.notdef /.notdef /.notdef /.notdef /.notdef /.notdef /.notdef /.notdef /.notdef /.notdef
/.notdef /.notdef /.notdef /.notdef /.notdef /.notdef /.notdef /.notdef /.notdef /.notdef
/.notdef /.notdef /space /exclam /quotedbl /numbersign /dollar /percent /ampersand /quoteright
/parenleft /parenright /asterisk /plus /comma /hyphen /period /slash /zero /one
/two /three /four /five /six /seven /eight /nine /colon /semicolon
/less /equal /greater /question /at /A /B /C /D /E
/F /G /H /I /J /K /L /M /N /O
/P /Q /R /S /T /U /V /W /X /Y
/Z /bracketleft /backslash /bracketright /asciicircum /underscore /quoteleft /a /b /c
/d /e /f /g /h /i /j /k /l /m
/n /o /p /q /r /s /t /u /v /w
/x /y /z /braceleft /bar /braceright /asciitilde /.notdef /.notdef /.notdef
/.notdef /.notdef /.notdef /.notdef /.notdef /.notdef /.notdef /.notdef /.notdef /.notdef
/.notdef /.notdef /.notdef /.notdef /.notdef /.notdef /.notdef /.notdef /.notdef /.notdef
/.notdef /.notdef /.notdef /.notdef /.notdef /.notdef /.notdef /.notdef /.notdef /.notdef
/space /exclamdown /cent /sterling /currency /yen /brokenbar /section /dieresis /copyright
/ordfeminine /guillemotleft /logicalnot /hyphen /registered /macron /degree /plusminus /twosuperior /threesuperior
/acute /mu /paragraph /periodcentered /cedilla /onesuperior /ordmasculine /guillemotright /onequarter /onehalf
/threequarters /questiondown /Agrave /Aacute /Acircumflex /Atilde /Adieresis /Aring /AE /Ccedilla
/Egrave /Eacute /Ecircumflex /Edieresis /Igrave /Iacute /Icircumflex /Idieresis /Eth /Ntilde
/Ograve /Oacute /Ocircumflex /Otilde /Odieresis /multiply /Oslash /Ugrave /Uacute /Ucircumflex
/Udieresis /Yacute /Thorn /germandbls /agrave /aacute /acircumflex /atilde /adieresis /aring
/ae /ccedilla /egrave /eacute /ecircumflex /edieresis /igrave /iacute /icircumflex /idieresis
/eth /ntilde /ograve /oacute /ocircumflex /otilde /odieresis /divide /oslash /ugrave
/uacute /ucircumflex /udieresis /yacute /thorn /ydieresis] /isolatin1encoding exch def
/cp {closepath} bind def
/c {curveto} bind def
/f {fill} bind def
/a {arc} bind def
/ef {eofill} bind def
/ex {exch} bind def
/gr {grestore} bind def
/gs {gsave} bind def
/sa {save} bind def
/rs {restore} bind def
/l {lineto} bind def
/m {moveto} bind def
/rm {rmoveto} bind def
/n {newpath} bind def
/s {stroke} bind def
/sh {show} bind def
/slc {setlinecap} bind def
/slj {setlinejoin} bind def
/slw {setlinewidth} bind def
/srgb {setrgbcolor} bind def
/rot {rotate} bind def
/sc {scale} bind def
/sd {setdash} bind def
/ff {findfont} bind def
/sf {setfont} bind def
/scf {scalefont} bind def
/sw {stringwidth pop} bind def
/tr {translate} bind def

/ellipsedict 8 dict def
ellipsedict /mtrx matrix put
/ellipse
{ ellipsedict begin
   /endangle exch def
   /startangle exch def
   /yrad exch def
   /xrad exch def
   /y exch def
   /x exch def   /savematrix mtrx currentmatrix def
   x y tr xrad yrad sc
   0 0 1 startangle endangle arc
   savematrix setmatrix
   end
} def

/mergeprocs {
dup length
3 -1 roll
dup
length
dup
5 1 roll
3 -1 roll
add
array cvx
dup
3 -1 roll
0 exch
putinterval
dup
4 2 roll
putinterval
} bind def
/Times-Roman-latin1
    /Times-Roman findfont
    dup length dict begin
	{1 index /FID ne {def} {pop pop} ifelse} forall
	/Encoding isolatin1encoding def
    currentdict end
definefont pop
/Times-Italic-latin1
    /Times-Italic findfont
    dup length dict begin
	{1 index /FID ne {def} {pop pop} ifelse} forall
	/Encoding isolatin1encoding def
    currentdict end
definefont pop
/Times-Bold-latin1
    /Times-Bold findfont
    dup length dict begin
	{1 index /FID ne {def} {pop pop} ifelse} forall
	/Encoding isolatin1encoding def
    currentdict end
definefont pop
/Times-BoldItalic-latin1
    /Times-BoldItalic findfont
    dup length dict begin
	{1 index /FID ne {def} {pop pop} ifelse} forall
	/Encoding isolatin1encoding def
    currentdict end
definefont pop
/AvantGarde-Gothic-latin1
    /AvantGarde-Gothic findfont
    dup length dict begin
	{1 index /FID ne {def} {pop pop} ifelse} forall
	/Encoding isolatin1encoding def
    currentdict end
definefont pop
/AvantGarde-BookOblique-latin1
    /AvantGarde-BookOblique findfont
    dup length dict begin
	{1 index /FID ne {def} {pop pop} ifelse} forall
	/Encoding isolatin1encoding def
    currentdict end
definefont pop
/AvantGarde-Demi-latin1
    /AvantGarde-Demi findfont
    dup length dict begin
	{1 index /FID ne {def} {pop pop} ifelse} forall
	/Encoding isolatin1encoding def
    currentdict end
definefont pop
/AvantGarde-DemiOblique-latin1
    /AvantGarde-DemiOblique findfont
    dup length dict begin
	{1 index /FID ne {def} {pop pop} ifelse} forall
	/Encoding isolatin1encoding def
    currentdict end
definefont pop
/Bookman-Light-latin1
    /Bookman-Light findfont
    dup length dict begin
	{1 index /FID ne {def} {pop pop} ifelse} forall
	/Encoding isolatin1encoding def
    currentdict end
definefont pop
/Bookman-LightItalic-latin1
    /Bookman-LightItalic findfont
    dup length dict begin
	{1 index /FID ne {def} {pop pop} ifelse} forall
	/Encoding isolatin1encoding def
    currentdict end
definefont pop
/Bookman-Demi-latin1
    /Bookman-Demi findfont
    dup length dict begin
	{1 index /FID ne {def} {pop pop} ifelse} forall
	/Encoding isolatin1encoding def
    currentdict end
definefont pop
/Bookman-DemiItalic-latin1
    /Bookman-DemiItalic findfont
    dup length dict begin
	{1 index /FID ne {def} {pop pop} ifelse} forall
	/Encoding isolatin1encoding def
    currentdict end
definefont pop
/Courier-latin1
    /Courier findfont
    dup length dict begin
	{1 index /FID ne {def} {pop pop} ifelse} forall
	/Encoding isolatin1encoding def
    currentdict end
definefont pop
/Courier-Oblique-latin1
    /Courier-Oblique findfont
    dup length dict begin
	{1 index /FID ne {def} {pop pop} ifelse} forall
	/Encoding isolatin1encoding def
    currentdict end
definefont pop
/Courier-Bold-latin1
    /Courier-Bold findfont
    dup length dict begin
	{1 index /FID ne {def} {pop pop} ifelse} forall
	/Encoding isolatin1encoding def
    currentdict end
definefont pop
/Courier-BoldOblique-latin1
    /Courier-BoldOblique findfont
    dup length dict begin
	{1 index /FID ne {def} {pop pop} ifelse} forall
	/Encoding isolatin1encoding def
    currentdict end
definefont pop
/Helvetica-latin1
    /Helvetica findfont
    dup length dict begin
	{1 index /FID ne {def} {pop pop} ifelse} forall
	/Encoding isolatin1encoding def
    currentdict end
definefont pop
/Helvetica-Oblique-latin1
    /Helvetica-Oblique findfont
    dup length dict begin
	{1 index /FID ne {def} {pop pop} ifelse} forall
	/Encoding isolatin1encoding def
    currentdict end
definefont pop
/Helvetica-Bold-latin1
    /Helvetica-Bold findfont
    dup length dict begin
	{1 index /FID ne {def} {pop pop} ifelse} forall
	/Encoding isolatin1encoding def
    currentdict end
definefont pop
/Helvetica-BoldOblique-latin1
    /Helvetica-BoldOblique findfont
    dup length dict begin
	{1 index /FID ne {def} {pop pop} ifelse} forall
	/Encoding isolatin1encoding def
    currentdict end
definefont pop
/Helvetica-Narrow-latin1
    /Helvetica-Narrow findfont
    dup length dict begin
	{1 index /FID ne {def} {pop pop} ifelse} forall
	/Encoding isolatin1encoding def
    currentdict end
definefont pop
/Helvetica-Narrow-Oblique-latin1
    /Helvetica-Narrow-Oblique findfont
    dup length dict begin
	{1 index /FID ne {def} {pop pop} ifelse} forall
	/Encoding isolatin1encoding def
    currentdict end
definefont pop
/Helvetica-Narrow-Bold-latin1
    /Helvetica-Narrow-Bold findfont
    dup length dict begin
	{1 index /FID ne {def} {pop pop} ifelse} forall
	/Encoding isolatin1encoding def
    currentdict end
definefont pop
/Helvetica-Narrow-BoldOblique-latin1
    /Helvetica-Narrow-BoldOblique findfont
    dup length dict begin
	{1 index /FID ne {def} {pop pop} ifelse} forall
	/Encoding isolatin1encoding def
    currentdict end
definefont pop
/NewCenturySchlbk-Roman-latin1
    /NewCenturySchlbk-Roman findfont
    dup length dict begin
	{1 index /FID ne {def} {pop pop} ifelse} forall
	/Encoding isolatin1encoding def
    currentdict end
definefont pop
/NewCenturySchlbk-Italic-latin1
    /NewCenturySchlbk-Italic findfont
    dup length dict begin
	{1 index /FID ne {def} {pop pop} ifelse} forall
	/Encoding isolatin1encoding def
    currentdict end
definefont pop
/NewCenturySchlbk-Bold-latin1
    /NewCenturySchlbk-Bold findfont
    dup length dict begin
	{1 index /FID ne {def} {pop pop} ifelse} forall
	/Encoding isolatin1encoding def
    currentdict end
definefont pop
/NewCenturySchlbk-BoldItalic-latin1
    /NewCenturySchlbk-BoldItalic findfont
    dup length dict begin
	{1 index /FID ne {def} {pop pop} ifelse} forall
	/Encoding isolatin1encoding def
    currentdict end
definefont pop
/Palatino-Roman-latin1
    /Palatino-Roman findfont
    dup length dict begin
	{1 index /FID ne {def} {pop pop} ifelse} forall
	/Encoding isolatin1encoding def
    currentdict end
definefont pop
/Palatino-Italic-latin1
    /Palatino-Italic findfont
    dup length dict begin
	{1 index /FID ne {def} {pop pop} ifelse} forall
	/Encoding isolatin1encoding def
    currentdict end
definefont pop
/Palatino-Bold-latin1
    /Palatino-Bold findfont
    dup length dict begin
	{1 index /FID ne {def} {pop pop} ifelse} forall
	/Encoding isolatin1encoding def
    currentdict end
definefont pop
/Palatino-BoldItalic-latin1
    /Palatino-BoldItalic findfont
    dup length dict begin
	{1 index /FID ne {def} {pop pop} ifelse} forall
	/Encoding isolatin1encoding def
    currentdict end
definefont pop
/Symbol-latin1
    /Symbol findfont
definefont pop
/ZapfChancery-MediumItalic-latin1
    /ZapfChancery-MediumItalic findfont
    dup length dict begin
	{1 index /FID ne {def} {pop pop} ifelse} forall
	/Encoding isolatin1encoding def
    currentdict end
definefont pop
/ZapfDingbats-latin1
    /ZapfDingbats findfont
    dup length dict begin
	{1 index /FID ne {def} {pop pop} ifelse} forall
	/Encoding isolatin1encoding def
    currentdict end
definefont pop
28.346000 -28.346000 scale
-28.080000 -225.240300 translate
%%EndProlog


0.100000 slw
[] 0 sd
[] 0 sd
0 slc
0 slj
0.100000 slw
0 slc
0 slj
[] 0 sd
0.576471 1.000000 0.258824 srgb
n 31.530000 209.515000 0.450000 0.450000 0 360 ellipse f
0.000000 0.000000 0.000000 srgb
n 31.530000 209.515000 0.450000 0.450000 0 360 ellipse cp s
0 slc
0 slj
[] 0 sd
n 31.530000 209.515000 0.450000 0.450000 0 360 ellipse cp s
0.100000 slw
[] 0 sd
[] 0 sd
0 slc
0 slj
0.100000 slw
0 slc
0 slj
[] 0 sd
1.000000 1.000000 1.000000 srgb
n 31.530000 211.515000 0.450000 0.450000 0 360 ellipse f
0.000000 0.000000 0.000000 srgb
n 31.530000 211.515000 0.450000 0.450000 0 360 ellipse cp s
0 slc
0 slj
[] 0 sd
n 31.530000 211.515000 0.450000 0.450000 0 360 ellipse cp s
0.100000 slw
[] 0 sd
[] 0 sd
0 slc
0 slj
0.100000 slw
0 slc
0 slj
[] 0 sd
1.000000 1.000000 1.000000 srgb
n 33.530000 209.515000 0.450000 0.450000 0 360 ellipse f
0.000000 0.000000 0.000000 srgb
n 33.530000 209.515000 0.450000 0.450000 0 360 ellipse cp s
0 slc
0 slj
[] 0 sd
n 33.530000 209.515000 0.450000 0.450000 0 360 ellipse cp s
0.100000 slw
[] 0 sd
[] 0 sd
0 slc
0 slj
0.100000 slw
0 slc
0 slj
[] 0 sd
1.000000 0.000000 0.000000 srgb
n 33.530000 211.515000 0.450000 0.450000 0 360 ellipse f
0.000000 0.000000 0.000000 srgb
n 33.530000 211.515000 0.450000 0.450000 0 360 ellipse cp s
0 slc
0 slj
[] 0 sd
n 33.530000 211.515000 0.450000 0.450000 0 360 ellipse cp s
0.100000 slw
[] 0 sd
[] 0 sd
0 slc
0 slj
0.100000 slw
0 slc
0 slj
[] 0 sd
1.000000 1.000000 1.000000 srgb
n 31.530000 213.515000 0.450000 0.450000 0 360 ellipse f
0.000000 0.000000 0.000000 srgb
n 31.530000 213.515000 0.450000 0.450000 0 360 ellipse cp s
0 slc
0 slj
[] 0 sd
n 31.530000 213.515000 0.450000 0.450000 0 360 ellipse cp s
0.100000 slw
[] 0 sd
[] 0 sd
0 slc
0 slj
0.100000 slw
0 slc
0 slj
[] 0 sd
1.000000 1.000000 1.000000 srgb
n 31.530000 215.515000 0.450000 0.450000 0 360 ellipse f
0.000000 0.000000 0.000000 srgb
n 31.530000 215.515000 0.450000 0.450000 0 360 ellipse cp s
0 slc
0 slj
[] 0 sd
n 31.530000 215.515000 0.450000 0.450000 0 360 ellipse cp s
0.100000 slw
[] 0 sd
[] 0 sd
0 slc
0 slj
0.100000 slw
0 slc
0 slj
[] 0 sd
1.000000 1.000000 1.000000 srgb
n 33.530000 213.515000 0.450000 0.450000 0 360 ellipse f
0.000000 0.000000 0.000000 srgb
n 33.530000 213.515000 0.450000 0.450000 0 360 ellipse cp s
0 slc
0 slj
[] 0 sd
n 33.530000 213.515000 0.450000 0.450000 0 360 ellipse cp s
0.100000 slw
[] 0 sd
[] 0 sd
0 slc
0 slj
0.100000 slw
0 slc
0 slj
[] 0 sd
1.000000 1.000000 1.000000 srgb
n 33.530000 215.515000 0.450000 0.450000 0 360 ellipse f
0.000000 0.000000 0.000000 srgb
n 33.530000 215.515000 0.450000 0.450000 0 360 ellipse cp s
0 slc
0 slj
[] 0 sd
n 33.530000 215.515000 0.450000 0.450000 0 360 ellipse cp s
0.100000 slw
[] 0 sd
[] 0 sd
0 slc
0 slj
0.100000 slw
0 slc
0 slj
[] 0 sd
1.000000 1.000000 1.000000 srgb
n 35.530000 209.515000 0.450000 0.450000 0 360 ellipse f
0.000000 0.000000 0.000000 srgb
n 35.530000 209.515000 0.450000 0.450000 0 360 ellipse cp s
0 slc
0 slj
[] 0 sd
n 35.530000 209.515000 0.450000 0.450000 0 360 ellipse cp s
0.100000 slw
[] 0 sd
[] 0 sd
0 slc
0 slj
0.100000 slw
0 slc
0 slj
[] 0 sd
1.000000 0.000000 0.000000 srgb
n 35.530000 211.515000 0.450000 0.450000 0 360 ellipse f
0.000000 0.000000 0.000000 srgb
n 35.530000 211.515000 0.450000 0.450000 0 360 ellipse cp s
0 slc
0 slj
[] 0 sd
n 35.530000 211.515000 0.450000 0.450000 0 360 ellipse cp s
0.100000 slw
[] 0 sd
[] 0 sd
0 slc
0 slj
0.100000 slw
0 slc
0 slj
[] 0 sd
1.000000 1.000000 1.000000 srgb
n 37.530000 209.515000 0.450000 0.450000 0 360 ellipse f
0.000000 0.000000 0.000000 srgb
n 37.530000 209.515000 0.450000 0.450000 0 360 ellipse cp s
0 slc
0 slj
[] 0 sd
n 37.530000 209.515000 0.450000 0.450000 0 360 ellipse cp s
0.100000 slw
[] 0 sd
[] 0 sd
0 slc
0 slj
0.100000 slw
0 slc
0 slj
[] 0 sd
1.000000 1.000000 1.000000 srgb
n 37.530000 211.515000 0.450000 0.450000 0 360 ellipse f
0.000000 0.000000 0.000000 srgb
n 37.530000 211.515000 0.450000 0.450000 0 360 ellipse cp s
0 slc
0 slj
[] 0 sd
n 37.530000 211.515000 0.450000 0.450000 0 360 ellipse cp s
0.100000 slw
[] 0 sd
[] 0 sd
0 slc
0 slj
0.100000 slw
0 slc
0 slj
[] 0 sd
1.000000 1.000000 1.000000 srgb
n 35.530000 213.515000 0.450000 0.450000 0 360 ellipse f
0.000000 0.000000 0.000000 srgb
n 35.530000 213.515000 0.450000 0.450000 0 360 ellipse cp s
0 slc
0 slj
[] 0 sd
n 35.530000 213.515000 0.450000 0.450000 0 360 ellipse cp s
0.100000 slw
[] 0 sd
[] 0 sd
0 slc
0 slj
0.100000 slw
0 slc
0 slj
[] 0 sd
1.000000 1.000000 1.000000 srgb
n 35.530000 215.515000 0.450000 0.450000 0 360 ellipse f
0.000000 0.000000 0.000000 srgb
n 35.530000 215.515000 0.450000 0.450000 0 360 ellipse cp s
0 slc
0 slj
[] 0 sd
n 35.530000 215.515000 0.450000 0.450000 0 360 ellipse cp s
0.100000 slw
[] 0 sd
[] 0 sd
0 slc
0 slj
0.100000 slw
0 slc
0 slj
[] 0 sd
1.000000 0.000000 0.000000 srgb
n 37.530000 213.515000 0.450000 0.450000 0 360 ellipse f
0.000000 0.000000 0.000000 srgb
n 37.530000 213.515000 0.450000 0.450000 0 360 ellipse cp s
0 slc
0 slj
[] 0 sd
n 37.530000 213.515000 0.450000 0.450000 0 360 ellipse cp s
0.100000 slw
[] 0 sd
[] 0 sd
0 slc
0 slj
0.100000 slw
0 slc
0 slj
[] 0 sd
1.000000 1.000000 1.000000 srgb
n 37.530000 215.515000 0.450000 0.450000 0 360 ellipse f
0.000000 0.000000 0.000000 srgb
n 37.530000 215.515000 0.450000 0.450000 0 360 ellipse cp s
0 slc
0 slj
[] 0 sd
n 37.530000 215.515000 0.450000 0.450000 0 360 ellipse cp s
0.100000 slw
[] 0 sd
[] 0 sd
0 slc
0 slj
0.100000 slw
0 slc
0 slj
[] 0 sd
1.000000 1.000000 1.000000 srgb
n 31.530000 217.515000 0.450000 0.450000 0 360 ellipse f
0.000000 0.000000 0.000000 srgb
n 31.530000 217.515000 0.450000 0.450000 0 360 ellipse cp s
0 slc
0 slj
[] 0 sd
n 31.530000 217.515000 0.450000 0.450000 0 360 ellipse cp s
0.100000 slw
[] 0 sd
[] 0 sd
0 slc
0 slj
0.100000 slw
0 slc
0 slj
[] 0 sd
n 31.530000 219.515000 0.450000 0.450000 0 360 ellipse f
n 31.530000 219.515000 0.450000 0.450000 0 360 ellipse cp s
0 slc
0 slj
[] 0 sd
n 31.530000 219.515000 0.450000 0.450000 0 360 ellipse cp s
0.100000 slw
[] 0 sd
[] 0 sd
0 slc
0 slj
0.100000 slw
0 slc
0 slj
[] 0 sd
1.000000 1.000000 1.000000 srgb
n 33.530000 217.515000 0.450000 0.450000 0 360 ellipse f
0.000000 0.000000 0.000000 srgb
n 33.530000 217.515000 0.450000 0.450000 0 360 ellipse cp s
0 slc
0 slj
[] 0 sd
n 33.530000 217.515000 0.450000 0.450000 0 360 ellipse cp s
0.100000 slw
[] 0 sd
[] 0 sd
0 slc
0 slj
0.100000 slw
0 slc
0 slj
[] 0 sd
n 33.530000 219.515000 0.450000 0.450000 0 360 ellipse f
n 33.530000 219.515000 0.450000 0.450000 0 360 ellipse cp s
0 slc
0 slj
[] 0 sd
n 33.530000 219.515000 0.450000 0.450000 0 360 ellipse cp s
0.100000 slw
[] 0 sd
[] 0 sd
0 slc
0 slj
0.100000 slw
0 slc
0 slj
[] 0 sd
1.000000 1.000000 1.000000 srgb
n 31.530000 221.515000 0.450000 0.450000 0 360 ellipse f
0.000000 0.000000 0.000000 srgb
n 31.530000 221.515000 0.450000 0.450000 0 360 ellipse cp s
0 slc
0 slj
[] 0 sd
n 31.530000 221.515000 0.450000 0.450000 0 360 ellipse cp s
0.100000 slw
[] 0 sd
[] 0 sd
0 slc
0 slj
0.100000 slw
0 slc
0 slj
[] 0 sd
1.000000 1.000000 1.000000 srgb
n 31.530000 223.515000 0.450000 0.450000 0 360 ellipse f
0.000000 0.000000 0.000000 srgb
n 31.530000 223.515000 0.450000 0.450000 0 360 ellipse cp s
0 slc
0 slj
[] 0 sd
n 31.530000 223.515000 0.450000 0.450000 0 360 ellipse cp s
0.100000 slw
[] 0 sd
[] 0 sd
0 slc
0 slj
0.100000 slw
0 slc
0 slj
[] 0 sd
1.000000 1.000000 1.000000 srgb
n 33.530000 221.515000 0.450000 0.450000 0 360 ellipse f
0.000000 0.000000 0.000000 srgb
n 33.530000 221.515000 0.450000 0.450000 0 360 ellipse cp s
0 slc
0 slj
[] 0 sd
n 33.530000 221.515000 0.450000 0.450000 0 360 ellipse cp s
0.100000 slw
[] 0 sd
[] 0 sd
0 slc
0 slj
0.100000 slw
0 slc
0 slj
[] 0 sd
1.000000 1.000000 1.000000 srgb
n 33.530000 223.515000 0.450000 0.450000 0 360 ellipse f
0.000000 0.000000 0.000000 srgb
n 33.530000 223.515000 0.450000 0.450000 0 360 ellipse cp s
0 slc
0 slj
[] 0 sd
n 33.530000 223.515000 0.450000 0.450000 0 360 ellipse cp s
0.100000 slw
[] 0 sd
[] 0 sd
0 slc
0 slj
0.100000 slw
0 slc
0 slj
[] 0 sd
1.000000 1.000000 1.000000 srgb
n 35.530000 217.515000 0.450000 0.450000 0 360 ellipse f
0.000000 0.000000 0.000000 srgb
n 35.530000 217.515000 0.450000 0.450000 0 360 ellipse cp s
0 slc
0 slj
[] 0 sd
n 35.530000 217.515000 0.450000 0.450000 0 360 ellipse cp s
0.100000 slw
[] 0 sd
[] 0 sd
0 slc
0 slj
0.100000 slw
0 slc
0 slj
[] 0 sd
n 35.530000 219.515000 0.450000 0.450000 0 360 ellipse f
n 35.530000 219.515000 0.450000 0.450000 0 360 ellipse cp s
0 slc
0 slj
[] 0 sd
n 35.530000 219.515000 0.450000 0.450000 0 360 ellipse cp s
0.100000 slw
[] 0 sd
[] 0 sd
0 slc
0 slj
0.100000 slw
0 slc
0 slj
[] 0 sd
1.000000 1.000000 1.000000 srgb
n 37.530000 217.515000 0.450000 0.450000 0 360 ellipse f
0.000000 0.000000 0.000000 srgb
n 37.530000 217.515000 0.450000 0.450000 0 360 ellipse cp s
0 slc
0 slj
[] 0 sd
n 37.530000 217.515000 0.450000 0.450000 0 360 ellipse cp s
0.100000 slw
[] 0 sd
[] 0 sd
0 slc
0 slj
0.100000 slw
0 slc
0 slj
[] 0 sd
n 37.530000 219.515000 0.450000 0.450000 0 360 ellipse f
n 37.530000 219.515000 0.450000 0.450000 0 360 ellipse cp s
0 slc
0 slj
[] 0 sd
n 37.530000 219.515000 0.450000 0.450000 0 360 ellipse cp s
0.100000 slw
[] 0 sd
[] 0 sd
0 slc
0 slj
0.100000 slw
0 slc
0 slj
[] 0 sd
1.000000 1.000000 1.000000 srgb
n 35.530000 221.515000 0.450000 0.450000 0 360 ellipse f
0.000000 0.000000 0.000000 srgb
n 35.530000 221.515000 0.450000 0.450000 0 360 ellipse cp s
0 slc
0 slj
[] 0 sd
n 35.530000 221.515000 0.450000 0.450000 0 360 ellipse cp s
0.100000 slw
[] 0 sd
[] 0 sd
0 slc
0 slj
0.100000 slw
0 slc
0 slj
[] 0 sd
1.000000 1.000000 1.000000 srgb
n 35.530000 223.515000 0.450000 0.450000 0 360 ellipse f
0.000000 0.000000 0.000000 srgb
n 35.530000 223.515000 0.450000 0.450000 0 360 ellipse cp s
0 slc
0 slj
[] 0 sd
n 35.530000 223.515000 0.450000 0.450000 0 360 ellipse cp s
0.100000 slw
[] 0 sd
[] 0 sd
0 slc
0 slj
0.100000 slw
0 slc
0 slj
[] 0 sd
1.000000 1.000000 1.000000 srgb
n 37.530000 221.515000 0.450000 0.450000 0 360 ellipse f
0.000000 0.000000 0.000000 srgb
n 37.530000 221.515000 0.450000 0.450000 0 360 ellipse cp s
0 slc
0 slj
[] 0 sd
n 37.530000 221.515000 0.450000 0.450000 0 360 ellipse cp s
0.100000 slw
[] 0 sd
[] 0 sd
0 slc
0 slj
0.100000 slw
0 slc
0 slj
[] 0 sd
1.000000 1.000000 1.000000 srgb
n 37.530000 223.515000 0.450000 0.450000 0 360 ellipse f
0.000000 0.000000 0.000000 srgb
n 37.530000 223.515000 0.450000 0.450000 0 360 ellipse cp s
0 slc
0 slj
[] 0 sd
n 37.530000 223.515000 0.450000 0.450000 0 360 ellipse cp s
0.100000 slw
[] 0 sd
[] 0 sd
0 slc
0 slj
0.100000 slw
0 slc
0 slj
[] 0 sd
n 39.530000 209.515000 0.450000 0.450000 0 360 ellipse f
n 39.530000 209.515000 0.450000 0.450000 0 360 ellipse cp s
0 slc
0 slj
[] 0 sd
n 39.530000 209.515000 0.450000 0.450000 0 360 ellipse cp s
0.100000 slw
[] 0 sd
[] 0 sd
0 slc
0 slj
0.100000 slw
0 slc
0 slj
[] 0 sd
n 39.530000 211.515000 0.450000 0.450000 0 360 ellipse f
n 39.530000 211.515000 0.450000 0.450000 0 360 ellipse cp s
0 slc
0 slj
[] 0 sd
n 39.530000 211.515000 0.450000 0.450000 0 360 ellipse cp s
0.100000 slw
[] 0 sd
[] 0 sd
0 slc
0 slj
0.100000 slw
0 slc
0 slj
[] 0 sd
1.000000 1.000000 1.000000 srgb
n 41.530000 209.515000 0.450000 0.450000 0 360 ellipse f
0.000000 0.000000 0.000000 srgb
n 41.530000 209.515000 0.450000 0.450000 0 360 ellipse cp s
0 slc
0 slj
[] 0 sd
n 41.530000 209.515000 0.450000 0.450000 0 360 ellipse cp s
0.100000 slw
[] 0 sd
[] 0 sd
0 slc
0 slj
0.100000 slw
0 slc
0 slj
[] 0 sd
1.000000 0.000000 0.000000 srgb
n 41.530000 211.515000 0.450000 0.450000 0 360 ellipse f
0.000000 0.000000 0.000000 srgb
n 41.530000 211.515000 0.450000 0.450000 0 360 ellipse cp s
0 slc
0 slj
[] 0 sd
n 41.530000 211.515000 0.450000 0.450000 0 360 ellipse cp s
0.100000 slw
[] 0 sd
[] 0 sd
0 slc
0 slj
0.100000 slw
0 slc
0 slj
[] 0 sd
1.000000 0.000000 0.000000 srgb
n 39.530000 213.515000 0.450000 0.450000 0 360 ellipse f
0.000000 0.000000 0.000000 srgb
n 39.530000 213.515000 0.450000 0.450000 0 360 ellipse cp s
0 slc
0 slj
[] 0 sd
n 39.530000 213.515000 0.450000 0.450000 0 360 ellipse cp s
0.100000 slw
[] 0 sd
[] 0 sd
0 slc
0 slj
0.100000 slw
0 slc
0 slj
[] 0 sd
1.000000 1.000000 1.000000 srgb
n 39.530000 215.515000 0.450000 0.450000 0 360 ellipse f
0.000000 0.000000 0.000000 srgb
n 39.530000 215.515000 0.450000 0.450000 0 360 ellipse cp s
0 slc
0 slj
[] 0 sd
n 39.530000 215.515000 0.450000 0.450000 0 360 ellipse cp s
0.100000 slw
[] 0 sd
[] 0 sd
0 slc
0 slj
0.100000 slw
0 slc
0 slj
[] 0 sd
1.000000 1.000000 1.000000 srgb
n 41.530000 213.515000 0.450000 0.450000 0 360 ellipse f
0.000000 0.000000 0.000000 srgb
n 41.530000 213.515000 0.450000 0.450000 0 360 ellipse cp s
0 slc
0 slj
[] 0 sd
n 41.530000 213.515000 0.450000 0.450000 0 360 ellipse cp s
0.100000 slw
[] 0 sd
[] 0 sd
0 slc
0 slj
0.100000 slw
0 slc
0 slj
[] 0 sd
1.000000 1.000000 1.000000 srgb
n 41.530000 215.515000 0.450000 0.450000 0 360 ellipse f
0.000000 0.000000 0.000000 srgb
n 41.530000 215.515000 0.450000 0.450000 0 360 ellipse cp s
0 slc
0 slj
[] 0 sd
n 41.530000 215.515000 0.450000 0.450000 0 360 ellipse cp s
0.100000 slw
[] 0 sd
[] 0 sd
0 slc
0 slj
0.100000 slw
0 slc
0 slj
[] 0 sd
1.000000 1.000000 1.000000 srgb
n 43.530000 209.515000 0.450000 0.450000 0 360 ellipse f
0.000000 0.000000 0.000000 srgb
n 43.530000 209.515000 0.450000 0.450000 0 360 ellipse cp s
0 slc
0 slj
[] 0 sd
n 43.530000 209.515000 0.450000 0.450000 0 360 ellipse cp s
0.100000 slw
[] 0 sd
[] 0 sd
0 slc
0 slj
0.100000 slw
0 slc
0 slj
[] 0 sd
1.000000 0.000000 0.000000 srgb
n 43.530000 211.515000 0.450000 0.450000 0 360 ellipse f
0.000000 0.000000 0.000000 srgb
n 43.530000 211.515000 0.450000 0.450000 0 360 ellipse cp s
0 slc
0 slj
[] 0 sd
n 43.530000 211.515000 0.450000 0.450000 0 360 ellipse cp s
0.100000 slw
[] 0 sd
[] 0 sd
0 slc
0 slj
0.100000 slw
0 slc
0 slj
[] 0 sd
0.486275 0.862745 1.000000 srgb
n 45.530000 209.515000 0.450000 0.450000 0 360 ellipse f
0.000000 0.000000 0.000000 srgb
n 45.530000 209.515000 0.450000 0.450000 0 360 ellipse cp s
0 slc
0 slj
[] 0 sd
n 45.530000 209.515000 0.450000 0.450000 0 360 ellipse cp s
0.100000 slw
[] 0 sd
[] 0 sd
0 slc
0 slj
0.100000 slw
0 slc
0 slj
[] 0 sd
1.000000 1.000000 1.000000 srgb
n 45.530000 211.515000 0.450000 0.450000 0 360 ellipse f
0.000000 0.000000 0.000000 srgb
n 45.530000 211.515000 0.450000 0.450000 0 360 ellipse cp s
0 slc
0 slj
[] 0 sd
n 45.530000 211.515000 0.450000 0.450000 0 360 ellipse cp s
0.100000 slw
[] 0 sd
[] 0 sd
0 slc
0 slj
0.100000 slw
0 slc
0 slj
[] 0 sd
1.000000 1.000000 1.000000 srgb
n 43.530000 213.515000 0.450000 0.450000 0 360 ellipse f
0.000000 0.000000 0.000000 srgb
n 43.530000 213.515000 0.450000 0.450000 0 360 ellipse cp s
0 slc
0 slj
[] 0 sd
n 43.530000 213.515000 0.450000 0.450000 0 360 ellipse cp s
0.100000 slw
[] 0 sd
[] 0 sd
0 slc
0 slj
0.100000 slw
0 slc
0 slj
[] 0 sd
1.000000 1.000000 1.000000 srgb
n 43.530000 215.515000 0.450000 0.450000 0 360 ellipse f
0.000000 0.000000 0.000000 srgb
n 43.530000 215.515000 0.450000 0.450000 0 360 ellipse cp s
0 slc
0 slj
[] 0 sd
n 43.530000 215.515000 0.450000 0.450000 0 360 ellipse cp s
0.100000 slw
[] 0 sd
[] 0 sd
0 slc
0 slj
0.100000 slw
0 slc
0 slj
[] 0 sd
1.000000 1.000000 1.000000 srgb
n 45.530000 213.515000 0.450000 0.450000 0 360 ellipse f
0.000000 0.000000 0.000000 srgb
n 45.530000 213.515000 0.450000 0.450000 0 360 ellipse cp s
0 slc
0 slj
[] 0 sd
n 45.530000 213.515000 0.450000 0.450000 0 360 ellipse cp s
0.100000 slw
[] 0 sd
[] 0 sd
0 slc
0 slj
0.100000 slw
0 slc
0 slj
[] 0 sd
1.000000 1.000000 1.000000 srgb
n 45.530000 215.515000 0.450000 0.450000 0 360 ellipse f
0.000000 0.000000 0.000000 srgb
n 45.530000 215.515000 0.450000 0.450000 0 360 ellipse cp s
0 slc
0 slj
[] 0 sd
n 45.530000 215.515000 0.450000 0.450000 0 360 ellipse cp s
0.100000 slw
[] 0 sd
[] 0 sd
0 slc
0 slj
0.100000 slw
0 slc
0 slj
[] 0 sd
1.000000 1.000000 1.000000 srgb
n 39.530000 217.515000 0.450000 0.450000 0 360 ellipse f
0.000000 0.000000 0.000000 srgb
n 39.530000 217.515000 0.450000 0.450000 0 360 ellipse cp s
0 slc
0 slj
[] 0 sd
n 39.530000 217.515000 0.450000 0.450000 0 360 ellipse cp s
0.100000 slw
[] 0 sd
[] 0 sd
0 slc
0 slj
0.100000 slw
0 slc
0 slj
[] 0 sd
n 39.530000 219.515000 0.450000 0.450000 0 360 ellipse f
n 39.530000 219.515000 0.450000 0.450000 0 360 ellipse cp s
0 slc
0 slj
[] 0 sd
n 39.530000 219.515000 0.450000 0.450000 0 360 ellipse cp s
0.100000 slw
[] 0 sd
[] 0 sd
0 slc
0 slj
0.100000 slw
0 slc
0 slj
[] 0 sd
1.000000 1.000000 1.000000 srgb
n 41.530000 217.515000 0.450000 0.450000 0 360 ellipse f
0.000000 0.000000 0.000000 srgb
n 41.530000 217.515000 0.450000 0.450000 0 360 ellipse cp s
0 slc
0 slj
[] 0 sd
n 41.530000 217.515000 0.450000 0.450000 0 360 ellipse cp s
0.100000 slw
[] 0 sd
[] 0 sd
0 slc
0 slj
0.100000 slw
0 slc
0 slj
[] 0 sd
n 41.530000 219.515000 0.450000 0.450000 0 360 ellipse f
n 41.530000 219.515000 0.450000 0.450000 0 360 ellipse cp s
0 slc
0 slj
[] 0 sd
n 41.530000 219.515000 0.450000 0.450000 0 360 ellipse cp s
0.100000 slw
[] 0 sd
[] 0 sd
0 slc
0 slj
0.100000 slw
0 slc
0 slj
[] 0 sd
1.000000 1.000000 1.000000 srgb
n 39.530000 221.515000 0.450000 0.450000 0 360 ellipse f
0.000000 0.000000 0.000000 srgb
n 39.530000 221.515000 0.450000 0.450000 0 360 ellipse cp s
0 slc
0 slj
[] 0 sd
n 39.530000 221.515000 0.450000 0.450000 0 360 ellipse cp s
0.100000 slw
[] 0 sd
[] 0 sd
0 slc
0 slj
0.100000 slw
0 slc
0 slj
[] 0 sd
1.000000 1.000000 1.000000 srgb
n 39.530000 223.515000 0.450000 0.450000 0 360 ellipse f
0.000000 0.000000 0.000000 srgb
n 39.530000 223.515000 0.450000 0.450000 0 360 ellipse cp s
0 slc
0 slj
[] 0 sd
n 39.530000 223.515000 0.450000 0.450000 0 360 ellipse cp s
0.100000 slw
[] 0 sd
[] 0 sd
0 slc
0 slj
0.100000 slw
0 slc
0 slj
[] 0 sd
1.000000 1.000000 1.000000 srgb
n 41.530000 221.515000 0.450000 0.450000 0 360 ellipse f
0.000000 0.000000 0.000000 srgb
n 41.530000 221.515000 0.450000 0.450000 0 360 ellipse cp s
0 slc
0 slj
[] 0 sd
n 41.530000 221.515000 0.450000 0.450000 0 360 ellipse cp s
0.100000 slw
[] 0 sd
[] 0 sd
0 slc
0 slj
0.100000 slw
0 slc
0 slj
[] 0 sd
1.000000 1.000000 1.000000 srgb
n 41.530000 223.515000 0.450000 0.450000 0 360 ellipse f
0.000000 0.000000 0.000000 srgb
n 41.530000 223.515000 0.450000 0.450000 0 360 ellipse cp s
0 slc
0 slj
[] 0 sd
n 41.530000 223.515000 0.450000 0.450000 0 360 ellipse cp s
0.100000 slw
[] 0 sd
[] 0 sd
0 slc
0 slj
0.100000 slw
0 slc
0 slj
[] 0 sd
1.000000 1.000000 1.000000 srgb
n 43.530000 217.515000 0.450000 0.450000 0 360 ellipse f
0.000000 0.000000 0.000000 srgb
n 43.530000 217.515000 0.450000 0.450000 0 360 ellipse cp s
0 slc
0 slj
[] 0 sd
n 43.530000 217.515000 0.450000 0.450000 0 360 ellipse cp s
0.100000 slw
[] 0 sd
[] 0 sd
0 slc
0 slj
0.100000 slw
0 slc
0 slj
[] 0 sd
n 43.530000 219.515000 0.450000 0.450000 0 360 ellipse f
n 43.530000 219.515000 0.450000 0.450000 0 360 ellipse cp s
0 slc
0 slj
[] 0 sd
n 43.530000 219.515000 0.450000 0.450000 0 360 ellipse cp s
0.100000 slw
[] 0 sd
[] 0 sd
0 slc
0 slj
0.100000 slw
0 slc
0 slj
[] 0 sd
1.000000 1.000000 1.000000 srgb
n 45.530000 217.515000 0.450000 0.450000 0 360 ellipse f
0.000000 0.000000 0.000000 srgb
n 45.530000 217.515000 0.450000 0.450000 0 360 ellipse cp s
0 slc
0 slj
[] 0 sd
n 45.530000 217.515000 0.450000 0.450000 0 360 ellipse cp s
0.100000 slw
[] 0 sd
[] 0 sd
0 slc
0 slj
0.100000 slw
0 slc
0 slj
[] 0 sd
n 45.530000 219.515000 0.450000 0.450000 0 360 ellipse f
n 45.530000 219.515000 0.450000 0.450000 0 360 ellipse cp s
0 slc
0 slj
[] 0 sd
n 45.530000 219.515000 0.450000 0.450000 0 360 ellipse cp s
0.100000 slw
[] 0 sd
[] 0 sd
0 slc
0 slj
0.100000 slw
0 slc
0 slj
[] 0 sd
1.000000 1.000000 1.000000 srgb
n 43.530000 221.515000 0.450000 0.450000 0 360 ellipse f
0.000000 0.000000 0.000000 srgb
n 43.530000 221.515000 0.450000 0.450000 0 360 ellipse cp s
0 slc
0 slj
[] 0 sd
n 43.530000 221.515000 0.450000 0.450000 0 360 ellipse cp s
0.100000 slw
[] 0 sd
[] 0 sd
0 slc
0 slj
0.100000 slw
0 slc
0 slj
[] 0 sd
1.000000 1.000000 1.000000 srgb
n 43.530000 223.515000 0.450000 0.450000 0 360 ellipse f
0.000000 0.000000 0.000000 srgb
n 43.530000 223.515000 0.450000 0.450000 0 360 ellipse cp s
0 slc
0 slj
[] 0 sd
n 43.530000 223.515000 0.450000 0.450000 0 360 ellipse cp s
0.100000 slw
[] 0 sd
[] 0 sd
0 slc
0 slj
0.100000 slw
0 slc
0 slj
[] 0 sd
1.000000 1.000000 1.000000 srgb
n 45.530000 221.515000 0.450000 0.450000 0 360 ellipse f
0.000000 0.000000 0.000000 srgb
n 45.530000 221.515000 0.450000 0.450000 0 360 ellipse cp s
0 slc
0 slj
[] 0 sd
n 45.530000 221.515000 0.450000 0.450000 0 360 ellipse cp s
0.100000 slw
[] 0 sd
[] 0 sd
0 slc
0 slj
0.100000 slw
0 slc
0 slj
[] 0 sd
1.000000 1.000000 1.000000 srgb
n 45.530000 223.515000 0.450000 0.450000 0 360 ellipse f
0.000000 0.000000 0.000000 srgb
n 45.530000 223.515000 0.450000 0.450000 0 360 ellipse cp s
0 slc
0 slj
[] 0 sd
n 45.530000 223.515000 0.450000 0.450000 0 360 ellipse cp s
/Helvetica-latin1 ff 0.790222 scf sf
(0) 28.080000 209.839222 m
 gs 1 -1 sc sh gr
/Helvetica-latin1 ff 0.790222 scf sf
(1) 28.080000 211.839222 m
 gs 1 -1 sc sh gr
/Helvetica-latin1 ff 0.790222 scf sf
(2) 28.080000 213.839222 m
 gs 1 -1 sc sh gr
/Helvetica-latin1 ff 0.790222 scf sf
(3) 28.080000 215.839222 m
 gs 1 -1 sc sh gr
/Helvetica-latin1 ff 0.790222 scf sf
(4) 28.080000 217.839222 m
 gs 1 -1 sc sh gr
/Helvetica-latin1 ff 0.790222 scf sf
(5) 28.080000 219.839222 m
 gs 1 -1 sc sh gr
/Helvetica-latin1 ff 0.790222 scf sf
(6) 28.080000 221.839222 m
 gs 1 -1 sc sh gr
/Helvetica-latin1 ff 0.790222 scf sf
(7) 28.080000 223.839222 m
 gs 1 -1 sc sh gr
/Helvetica-latin1 ff 0.790222 scf sf
(0) 31.080000 207.839222 m
 gs 1 -1 sc sh gr
/Helvetica-latin1 ff 0.790222 scf sf
(1) 33.080000 207.839222 m
 gs 1 -1 sc sh gr
/Helvetica-latin1 ff 0.790222 scf sf
(2) 35.080000 207.839222 m
 gs 1 -1 sc sh gr
/Helvetica-latin1 ff 0.790222 scf sf
(3) 37.080000 207.839222 m
 gs 1 -1 sc sh gr
/Helvetica-latin1 ff 0.790222 scf sf
(4) 39.080000 207.839222 m
 gs 1 -1 sc sh gr
/Helvetica-latin1 ff 0.790222 scf sf
(5) 41.080000 207.839222 m
 gs 1 -1 sc sh gr
/Helvetica-latin1 ff 0.790222 scf sf
(6) 43.080000 207.839222 m
 gs 1 -1 sc sh gr
/Helvetica-latin1 ff 0.790222 scf sf
(7) 45.080000 207.839222 m
 gs 1 -1 sc sh gr
0.300000 slw
[] 0 sd
[] 0 sd
0 slc
0.576471 1.000000 0.258824 srgb
n 38.504300 208.090300 m 38.504300 225.090300 l s
0.300000 slw
[] 0 sd
[] 0 sd
0 slc
n 29.115400 216.560000 m 49.115400 216.560000 l s
0.100000 slw
[] 0 sd
[] 0 sd
0 slc
0.000000 0.000000 0.000000 srgb
n 31.883760 209.868760 m 32.832018 210.817018 l s
[] 0 sd
0 slj
0 slc
n 33.097183 211.082183 m 32.566853 210.905407 l 32.832018 210.817018 l 32.920407 210.551853 l ef
n 33.097183 211.082183 m 32.566853 210.905407 l 32.832018 210.817018 l 32.920407 210.551853 l cp s
0.100000 slw
[] 0 sd
[] 0 sd
0 slc
n 34.030488 211.515000 m 34.542708 211.515000 l s
[] 0 sd
0 slj
0 slc
n 34.917708 211.515000 m 34.417708 211.765000 l 34.542708 211.515000 l 34.417708 211.265000 l ef
n 34.917708 211.515000 m 34.417708 211.765000 l 34.542708 211.515000 l 34.417708 211.265000 l cp s
0.100000 slw
[] 0 sd
[] 0 sd
0 slc
n 35.883760 211.868760 m 36.832018 212.817018 l s
[] 0 sd
0 slj
0 slc
n 37.097183 213.082183 m 36.566853 212.905407 l 36.832018 212.817018 l 36.920407 212.551853 l ef
n 37.097183 213.082183 m 36.566853 212.905407 l 36.832018 212.817018 l 36.920407 212.551853 l cp s
0.100000 slw
[] 0 sd
[] 0 sd
0 slc
n 38.030488 213.515000 m 38.542708 213.515000 l s
[] 0 sd
0 slj
0 slc
n 38.917708 213.515000 m 38.417708 213.765000 l 38.542708 213.515000 l 38.417708 213.265000 l ef
n 38.917708 213.515000 m 38.417708 213.765000 l 38.542708 213.515000 l 38.417708 213.265000 l cp s
0.100000 slw
[] 0 sd
[] 0 sd
0 slc
n 39.883760 213.161240 m 40.832018 212.212982 l s
[] 0 sd
0 slj
0 slc
n 41.097183 211.947817 m 40.920407 212.478147 l 40.832018 212.212982 l 40.566853 212.124593 l ef
n 41.097183 211.947817 m 40.920407 212.478147 l 40.832018 212.212982 l 40.566853 212.124593 l cp s
0.100000 slw
[] 0 sd
[] 0 sd
0 slc
n 42.030488 211.515000 m 42.542708 211.515000 l s
[] 0 sd
0 slj
0 slc
n 42.917708 211.515000 m 42.417708 211.765000 l 42.542708 211.515000 l 42.417708 211.265000 l ef
n 42.917708 211.515000 m 42.417708 211.765000 l 42.542708 211.515000 l 42.417708 211.265000 l cp s
0.100000 slw
[] 0 sd
[] 0 sd
0 slc
n 43.883760 211.161240 m 44.832018 210.212982 l s
[] 0 sd
0 slj
0 slc
n 45.097183 209.947817 m 44.920407 210.478147 l 44.832018 210.212982 l 44.566853 210.124593 l ef
n 45.097183 209.947817 m 44.920407 210.478147 l 44.832018 210.212982 l 44.566853 210.124593 l cp s
showpage
