%!PS-Adobe-2.0 EPSF-2.0
%%Title: /home/david/src/honours_report/resources/graph_abstraction_example_initial.dia
%%Creator: Dia v0.97.3
%%CreationDate: Mon Nov  2 10:55:54 2015
%%For: david
%%Orientation: Portrait
%%Magnification: 1.0000
%%BoundingBox: 0 0 1306 1251
%%BeginSetup
%%EndSetup
%%EndComments
%%BeginProlog
[ /.notdef /.notdef /.notdef /.notdef /.notdef /.notdef /.notdef /.notdef /.notdef /.notdef
/.notdef /.notdef /.notdef /.notdef /.notdef /.notdef /.notdef /.notdef /.notdef /.notdef
/.notdef /.notdef /.notdef /.notdef /.notdef /.notdef /.notdef /.notdef /.notdef /.notdef
/.notdef /.notdef /space /exclam /quotedbl /numbersign /dollar /percent /ampersand /quoteright
/parenleft /parenright /asterisk /plus /comma /hyphen /period /slash /zero /one
/two /three /four /five /six /seven /eight /nine /colon /semicolon
/less /equal /greater /question /at /A /B /C /D /E
/F /G /H /I /J /K /L /M /N /O
/P /Q /R /S /T /U /V /W /X /Y
/Z /bracketleft /backslash /bracketright /asciicircum /underscore /quoteleft /a /b /c
/d /e /f /g /h /i /j /k /l /m
/n /o /p /q /r /s /t /u /v /w
/x /y /z /braceleft /bar /braceright /asciitilde /.notdef /.notdef /.notdef
/.notdef /.notdef /.notdef /.notdef /.notdef /.notdef /.notdef /.notdef /.notdef /.notdef
/.notdef /.notdef /.notdef /.notdef /.notdef /.notdef /.notdef /.notdef /.notdef /.notdef
/.notdef /.notdef /.notdef /.notdef /.notdef /.notdef /.notdef /.notdef /.notdef /.notdef
/space /exclamdown /cent /sterling /currency /yen /brokenbar /section /dieresis /copyright
/ordfeminine /guillemotleft /logicalnot /hyphen /registered /macron /degree /plusminus /twosuperior /threesuperior
/acute /mu /paragraph /periodcentered /cedilla /onesuperior /ordmasculine /guillemotright /onequarter /onehalf
/threequarters /questiondown /Agrave /Aacute /Acircumflex /Atilde /Adieresis /Aring /AE /Ccedilla
/Egrave /Eacute /Ecircumflex /Edieresis /Igrave /Iacute /Icircumflex /Idieresis /Eth /Ntilde
/Ograve /Oacute /Ocircumflex /Otilde /Odieresis /multiply /Oslash /Ugrave /Uacute /Ucircumflex
/Udieresis /Yacute /Thorn /germandbls /agrave /aacute /acircumflex /atilde /adieresis /aring
/ae /ccedilla /egrave /eacute /ecircumflex /edieresis /igrave /iacute /icircumflex /idieresis
/eth /ntilde /ograve /oacute /ocircumflex /otilde /odieresis /divide /oslash /ugrave
/uacute /ucircumflex /udieresis /yacute /thorn /ydieresis] /isolatin1encoding exch def
/cp {closepath} bind def
/c {curveto} bind def
/f {fill} bind def
/a {arc} bind def
/ef {eofill} bind def
/ex {exch} bind def
/gr {grestore} bind def
/gs {gsave} bind def
/sa {save} bind def
/rs {restore} bind def
/l {lineto} bind def
/m {moveto} bind def
/rm {rmoveto} bind def
/n {newpath} bind def
/s {stroke} bind def
/sh {show} bind def
/slc {setlinecap} bind def
/slj {setlinejoin} bind def
/slw {setlinewidth} bind def
/srgb {setrgbcolor} bind def
/rot {rotate} bind def
/sc {scale} bind def
/sd {setdash} bind def
/ff {findfont} bind def
/sf {setfont} bind def
/scf {scalefont} bind def
/sw {stringwidth pop} bind def
/tr {translate} bind def

/ellipsedict 8 dict def
ellipsedict /mtrx matrix put
/ellipse
{ ellipsedict begin
   /endangle exch def
   /startangle exch def
   /yrad exch def
   /xrad exch def
   /y exch def
   /x exch def   /savematrix mtrx currentmatrix def
   x y tr xrad yrad sc
   0 0 1 startangle endangle arc
   savematrix setmatrix
   end
} def

/mergeprocs {
dup length
3 -1 roll
dup
length
dup
5 1 roll
3 -1 roll
add
array cvx
dup
3 -1 roll
0 exch
putinterval
dup
4 2 roll
putinterval
} bind def
/Times-Roman-latin1
    /Times-Roman findfont
    dup length dict begin
	{1 index /FID ne {def} {pop pop} ifelse} forall
	/Encoding isolatin1encoding def
    currentdict end
definefont pop
/Times-Italic-latin1
    /Times-Italic findfont
    dup length dict begin
	{1 index /FID ne {def} {pop pop} ifelse} forall
	/Encoding isolatin1encoding def
    currentdict end
definefont pop
/Times-Bold-latin1
    /Times-Bold findfont
    dup length dict begin
	{1 index /FID ne {def} {pop pop} ifelse} forall
	/Encoding isolatin1encoding def
    currentdict end
definefont pop
/Times-BoldItalic-latin1
    /Times-BoldItalic findfont
    dup length dict begin
	{1 index /FID ne {def} {pop pop} ifelse} forall
	/Encoding isolatin1encoding def
    currentdict end
definefont pop
/AvantGarde-Gothic-latin1
    /AvantGarde-Gothic findfont
    dup length dict begin
	{1 index /FID ne {def} {pop pop} ifelse} forall
	/Encoding isolatin1encoding def
    currentdict end
definefont pop
/AvantGarde-BookOblique-latin1
    /AvantGarde-BookOblique findfont
    dup length dict begin
	{1 index /FID ne {def} {pop pop} ifelse} forall
	/Encoding isolatin1encoding def
    currentdict end
definefont pop
/AvantGarde-Demi-latin1
    /AvantGarde-Demi findfont
    dup length dict begin
	{1 index /FID ne {def} {pop pop} ifelse} forall
	/Encoding isolatin1encoding def
    currentdict end
definefont pop
/AvantGarde-DemiOblique-latin1
    /AvantGarde-DemiOblique findfont
    dup length dict begin
	{1 index /FID ne {def} {pop pop} ifelse} forall
	/Encoding isolatin1encoding def
    currentdict end
definefont pop
/Bookman-Light-latin1
    /Bookman-Light findfont
    dup length dict begin
	{1 index /FID ne {def} {pop pop} ifelse} forall
	/Encoding isolatin1encoding def
    currentdict end
definefont pop
/Bookman-LightItalic-latin1
    /Bookman-LightItalic findfont
    dup length dict begin
	{1 index /FID ne {def} {pop pop} ifelse} forall
	/Encoding isolatin1encoding def
    currentdict end
definefont pop
/Bookman-Demi-latin1
    /Bookman-Demi findfont
    dup length dict begin
	{1 index /FID ne {def} {pop pop} ifelse} forall
	/Encoding isolatin1encoding def
    currentdict end
definefont pop
/Bookman-DemiItalic-latin1
    /Bookman-DemiItalic findfont
    dup length dict begin
	{1 index /FID ne {def} {pop pop} ifelse} forall
	/Encoding isolatin1encoding def
    currentdict end
definefont pop
/Courier-latin1
    /Courier findfont
    dup length dict begin
	{1 index /FID ne {def} {pop pop} ifelse} forall
	/Encoding isolatin1encoding def
    currentdict end
definefont pop
/Courier-Oblique-latin1
    /Courier-Oblique findfont
    dup length dict begin
	{1 index /FID ne {def} {pop pop} ifelse} forall
	/Encoding isolatin1encoding def
    currentdict end
definefont pop
/Courier-Bold-latin1
    /Courier-Bold findfont
    dup length dict begin
	{1 index /FID ne {def} {pop pop} ifelse} forall
	/Encoding isolatin1encoding def
    currentdict end
definefont pop
/Courier-BoldOblique-latin1
    /Courier-BoldOblique findfont
    dup length dict begin
	{1 index /FID ne {def} {pop pop} ifelse} forall
	/Encoding isolatin1encoding def
    currentdict end
definefont pop
/Helvetica-latin1
    /Helvetica findfont
    dup length dict begin
	{1 index /FID ne {def} {pop pop} ifelse} forall
	/Encoding isolatin1encoding def
    currentdict end
definefont pop
/Helvetica-Oblique-latin1
    /Helvetica-Oblique findfont
    dup length dict begin
	{1 index /FID ne {def} {pop pop} ifelse} forall
	/Encoding isolatin1encoding def
    currentdict end
definefont pop
/Helvetica-Bold-latin1
    /Helvetica-Bold findfont
    dup length dict begin
	{1 index /FID ne {def} {pop pop} ifelse} forall
	/Encoding isolatin1encoding def
    currentdict end
definefont pop
/Helvetica-BoldOblique-latin1
    /Helvetica-BoldOblique findfont
    dup length dict begin
	{1 index /FID ne {def} {pop pop} ifelse} forall
	/Encoding isolatin1encoding def
    currentdict end
definefont pop
/Helvetica-Narrow-latin1
    /Helvetica-Narrow findfont
    dup length dict begin
	{1 index /FID ne {def} {pop pop} ifelse} forall
	/Encoding isolatin1encoding def
    currentdict end
definefont pop
/Helvetica-Narrow-Oblique-latin1
    /Helvetica-Narrow-Oblique findfont
    dup length dict begin
	{1 index /FID ne {def} {pop pop} ifelse} forall
	/Encoding isolatin1encoding def
    currentdict end
definefont pop
/Helvetica-Narrow-Bold-latin1
    /Helvetica-Narrow-Bold findfont
    dup length dict begin
	{1 index /FID ne {def} {pop pop} ifelse} forall
	/Encoding isolatin1encoding def
    currentdict end
definefont pop
/Helvetica-Narrow-BoldOblique-latin1
    /Helvetica-Narrow-BoldOblique findfont
    dup length dict begin
	{1 index /FID ne {def} {pop pop} ifelse} forall
	/Encoding isolatin1encoding def
    currentdict end
definefont pop
/NewCenturySchlbk-Roman-latin1
    /NewCenturySchlbk-Roman findfont
    dup length dict begin
	{1 index /FID ne {def} {pop pop} ifelse} forall
	/Encoding isolatin1encoding def
    currentdict end
definefont pop
/NewCenturySchlbk-Italic-latin1
    /NewCenturySchlbk-Italic findfont
    dup length dict begin
	{1 index /FID ne {def} {pop pop} ifelse} forall
	/Encoding isolatin1encoding def
    currentdict end
definefont pop
/NewCenturySchlbk-Bold-latin1
    /NewCenturySchlbk-Bold findfont
    dup length dict begin
	{1 index /FID ne {def} {pop pop} ifelse} forall
	/Encoding isolatin1encoding def
    currentdict end
definefont pop
/NewCenturySchlbk-BoldItalic-latin1
    /NewCenturySchlbk-BoldItalic findfont
    dup length dict begin
	{1 index /FID ne {def} {pop pop} ifelse} forall
	/Encoding isolatin1encoding def
    currentdict end
definefont pop
/Palatino-Roman-latin1
    /Palatino-Roman findfont
    dup length dict begin
	{1 index /FID ne {def} {pop pop} ifelse} forall
	/Encoding isolatin1encoding def
    currentdict end
definefont pop
/Palatino-Italic-latin1
    /Palatino-Italic findfont
    dup length dict begin
	{1 index /FID ne {def} {pop pop} ifelse} forall
	/Encoding isolatin1encoding def
    currentdict end
definefont pop
/Palatino-Bold-latin1
    /Palatino-Bold findfont
    dup length dict begin
	{1 index /FID ne {def} {pop pop} ifelse} forall
	/Encoding isolatin1encoding def
    currentdict end
definefont pop
/Palatino-BoldItalic-latin1
    /Palatino-BoldItalic findfont
    dup length dict begin
	{1 index /FID ne {def} {pop pop} ifelse} forall
	/Encoding isolatin1encoding def
    currentdict end
definefont pop
/Symbol-latin1
    /Symbol findfont
definefont pop
/ZapfChancery-MediumItalic-latin1
    /ZapfChancery-MediumItalic findfont
    dup length dict begin
	{1 index /FID ne {def} {pop pop} ifelse} forall
	/Encoding isolatin1encoding def
    currentdict end
definefont pop
/ZapfDingbats-latin1
    /ZapfDingbats findfont
    dup length dict begin
	{1 index /FID ne {def} {pop pop} ifelse} forall
	/Encoding isolatin1encoding def
    currentdict end
definefont pop
28.346000 -28.346000 scale
-6.000000 -49.050000 translate
%%EndProlog


0.100000 slw
[] 0 sd
[] 0 sd
0 slc
0 slj
0.100000 slw
0 slc
0 slj
[] 0 sd
1.000000 1.000000 1.000000 srgb
n 18.500000 6.500000 1.500000 1.500000 0 360 ellipse f
0.000000 0.000000 0.000000 srgb
n 18.500000 6.500000 1.500000 1.500000 0 360 ellipse cp s
0 slc
0 slj
[] 0 sd
n 18.500000 6.500000 1.500000 1.500000 0 360 ellipse cp s
0.100000 slw
[] 0 sd
[] 0 sd
0 slc
0 slj
0.100000 slw
0 slc
0 slj
[] 0 sd
1.000000 1.000000 1.000000 srgb
n 24.500000 6.500000 1.500000 1.500000 0 360 ellipse f
0.000000 0.000000 0.000000 srgb
n 24.500000 6.500000 1.500000 1.500000 0 360 ellipse cp s
0 slc
0 slj
[] 0 sd
n 24.500000 6.500000 1.500000 1.500000 0 360 ellipse cp s
0.100000 slw
[] 0 sd
[] 0 sd
0 slc
n 19.594278 7.594278 m 23.403900 11.403900 l s
0.100000 slw
[] 0 sd
[] 0 sd
0 slc
n 19.596100 11.403900 m 23.405722 7.594278 l s
0.100000 slw
[] 0 sd
[] 0 sd
0 slc
n 24.500000 8.049717 m 24.500000 10.949800 l s
0.100000 slw
[] 0 sd
[] 0 sd
0 slc
n 20.050171 6.500000 m 22.949829 6.500000 l s
0.100000 slw
[] 0 sd
[] 0 sd
0 slc
n 18.500000 8.049717 m 18.500000 10.949800 l s
0.100000 slw
[] 0 sd
[] 0 sd
0 slc
n 20.050200 12.500000 m 22.949800 12.500000 l s
/Helvetica-latin1 ff 1.185333 scf sf
(A) dup sw 2 div 18.500000 ex sub 6.630083 m
 gs 1 -1 sc sh gr
/Helvetica-latin1 ff 1.185333 scf sf
(B) dup sw 2 div 24.500000 ex sub 6.630083 m
 gs 1 -1 sc sh gr
0.100000 slw
[] 0 sd
[] 0 sd
0 slc
0 slj
0.100000 slw
0 slc
0 slj
[] 0 sd
1.000000 1.000000 1.000000 srgb
n 18.500000 12.500000 1.500000 1.500000 0 360 ellipse f
0.000000 0.000000 0.000000 srgb
n 18.500000 12.500000 1.500000 1.500000 0 360 ellipse cp s
0 slc
0 slj
[] 0 sd
n 18.500000 12.500000 1.500000 1.500000 0 360 ellipse cp s
/Helvetica-latin1 ff 1.185333 scf sf
(C) dup sw 2 div 18.500000 ex sub 12.630083 m
 gs 1 -1 sc sh gr
0.100000 slw
[] 0 sd
[] 0 sd
0 slc
0 slj
0.100000 slw
0 slc
0 slj
[] 0 sd
1.000000 1.000000 1.000000 srgb
n 24.500000 12.500000 1.500000 1.500000 0 360 ellipse f
0.000000 0.000000 0.000000 srgb
n 24.500000 12.500000 1.500000 1.500000 0 360 ellipse cp s
0 slc
0 slj
[] 0 sd
n 24.500000 12.500000 1.500000 1.500000 0 360 ellipse cp s
/Helvetica-latin1 ff 1.185333 scf sf
(D) dup sw 2 div 24.500000 ex sub 12.630083 m
 gs 1 -1 sc sh gr
0.100000 slw
[] 0 sd
[] 0 sd
0 slc
0 slj
0.100000 slw
0 slc
0 slj
[] 0 sd
1.000000 1.000000 1.000000 srgb
n 31.500000 12.500000 1.500000 1.500000 0 360 ellipse f
0.000000 0.000000 0.000000 srgb
n 31.500000 12.500000 1.500000 1.500000 0 360 ellipse cp s
0 slc
0 slj
[] 0 sd
n 31.500000 12.500000 1.500000 1.500000 0 360 ellipse cp s
/Helvetica-latin1 ff 1.185333 scf sf
(E) dup sw 2 div 31.500000 ex sub 12.630083 m
 gs 1 -1 sc sh gr
0.100000 slw
[] 0 sd
[] 0 sd
0 slc
0 slj
0.100000 slw
0 slc
0 slj
[] 0 sd
1.000000 1.000000 1.000000 srgb
n 37.500000 12.500000 1.500000 1.500000 0 360 ellipse f
0.000000 0.000000 0.000000 srgb
n 37.500000 12.500000 1.500000 1.500000 0 360 ellipse cp s
0 slc
0 slj
[] 0 sd
n 37.500000 12.500000 1.500000 1.500000 0 360 ellipse cp s
/Helvetica-latin1 ff 1.185333 scf sf
(F) dup sw 2 div 37.500000 ex sub 12.630083 m
 gs 1 -1 sc sh gr
0.100000 slw
[] 0 sd
[] 0 sd
0 slc
0 slj
0.100000 slw
0 slc
0 slj
[] 0 sd
1.000000 1.000000 1.000000 srgb
n 43.500000 12.500000 1.500000 1.500000 0 360 ellipse f
0.000000 0.000000 0.000000 srgb
n 43.500000 12.500000 1.500000 1.500000 0 360 ellipse cp s
0 slc
0 slj
[] 0 sd
n 43.500000 12.500000 1.500000 1.500000 0 360 ellipse cp s
/Helvetica-latin1 ff 1.185333 scf sf
(G) dup sw 2 div 43.500000 ex sub 12.630083 m
 gs 1 -1 sc sh gr
0.100000 slw
[] 0 sd
[] 0 sd
0 slc
0 slj
0.100000 slw
0 slc
0 slj
[] 0 sd
1.000000 1.000000 1.000000 srgb
n 43.500000 18.500000 1.500000 1.500000 0 360 ellipse f
0.000000 0.000000 0.000000 srgb
n 43.500000 18.500000 1.500000 1.500000 0 360 ellipse cp s
0 slc
0 slj
[] 0 sd
n 43.500000 18.500000 1.500000 1.500000 0 360 ellipse cp s
/Helvetica-latin1 ff 1.185333 scf sf
(H) dup sw 2 div 43.500000 ex sub 18.630083 m
 gs 1 -1 sc sh gr
0.100000 slw
[] 0 sd
[] 0 sd
0 slc
0 slj
0.100000 slw
0 slc
0 slj
[] 0 sd
1.000000 1.000000 1.000000 srgb
n 50.500000 18.500000 1.500000 1.500000 0 360 ellipse f
0.000000 0.000000 0.000000 srgb
n 50.500000 18.500000 1.500000 1.500000 0 360 ellipse cp s
0 slc
0 slj
[] 0 sd
n 50.500000 18.500000 1.500000 1.500000 0 360 ellipse cp s
/Helvetica-latin1 ff 1.185333 scf sf
(I) dup sw 2 div 50.500000 ex sub 18.630083 m
 gs 1 -1 sc sh gr
0.100000 slw
[] 0 sd
[] 0 sd
0 slc
0 slj
0.100000 slw
0 slc
0 slj
[] 0 sd
1.000000 1.000000 1.000000 srgb
n 43.500000 25.500000 1.500000 1.500000 0 360 ellipse f
0.000000 0.000000 0.000000 srgb
n 43.500000 25.500000 1.500000 1.500000 0 360 ellipse cp s
0 slc
0 slj
[] 0 sd
n 43.500000 25.500000 1.500000 1.500000 0 360 ellipse cp s
/Helvetica-latin1 ff 1.185333 scf sf
(J) dup sw 2 div 43.500000 ex sub 25.630083 m
 gs 1 -1 sc sh gr
0.100000 slw
[] 0 sd
[] 0 sd
0 slc
0 slj
0.100000 slw
0 slc
0 slj
[] 0 sd
1.000000 1.000000 1.000000 srgb
n 50.500000 25.500000 1.500000 1.500000 0 360 ellipse f
0.000000 0.000000 0.000000 srgb
n 50.500000 25.500000 1.500000 1.500000 0 360 ellipse cp s
0 slc
0 slj
[] 0 sd
n 50.500000 25.500000 1.500000 1.500000 0 360 ellipse cp s
/Helvetica-latin1 ff 1.185333 scf sf
(K) dup sw 2 div 50.500000 ex sub 25.630083 m
 gs 1 -1 sc sh gr
0.100000 slw
[] 0 sd
[] 0 sd
0 slc
n 26.049194 12.500000 m 29.950806 12.500000 l s
0.100000 slw
[] 0 sd
[] 0 sd
0 slc
n 33.050171 12.500000 m 35.949829 12.500000 l s
0.100000 slw
[] 0 sd
[] 0 sd
0 slc
n 39.050171 12.500000 m 41.949829 12.500000 l s
0.100000 slw
[] 0 sd
[] 0 sd
0 slc
n 43.500000 14.050171 m 43.500000 16.949829 l s
0.100000 slw
[] 0 sd
[] 0 sd
0 slc
n 43.500000 20.049194 m 43.500000 23.950806 l s
0.100000 slw
[] 0 sd
[] 0 sd
0 slc
n 45.049194 18.500000 m 48.950806 18.500000 l s
0.100000 slw
[] 0 sd
[] 0 sd
0 slc
n 50.500000 20.049194 m 50.500000 23.950806 l s
0.100000 slw
[] 0 sd
[] 0 sd
0 slc
n 45.049194 25.500000 m 48.950806 25.500000 l s
0.100000 slw
[] 0 sd
[] 0 sd
0 slc
n 44.595886 19.595886 m 49.404114 24.404114 l s
0.100000 slw
[] 0 sd
[] 0 sd
0 slc
n 49.404114 19.595886 m 44.595886 24.404114 l s
0.100000 slw
[] 0 sd
[] 0 sd
0 slc
n 38.596069 13.596069 m 42.403931 17.403931 l s
0.100000 slw
[] 0 sd
[] 0 sd
0 slc
0 slj
0.100000 slw
0 slc
0 slj
[] 0 sd
1.000000 1.000000 1.000000 srgb
n 21.500000 31.500000 1.500000 1.500000 0 360 ellipse f
0.000000 0.000000 0.000000 srgb
n 21.500000 31.500000 1.500000 1.500000 0 360 ellipse cp s
0 slc
0 slj
[] 0 sd
n 21.500000 31.500000 1.500000 1.500000 0 360 ellipse cp s
/Helvetica-latin1 ff 1.185333 scf sf
(A') dup sw 2 div 21.500000 ex sub 31.630083 m
 gs 1 -1 sc sh gr
0.100000 slw
[] 0 sd
[] 0 sd
0 slc
0 slj
0.100000 slw
0 slc
0 slj
[] 0 sd
1.000000 1.000000 1.000000 srgb
n 46.500000 38.500000 1.500000 1.500000 0 360 ellipse f
0.000000 0.000000 0.000000 srgb
n 46.500000 38.500000 1.500000 1.500000 0 360 ellipse cp s
0 slc
0 slj
[] 0 sd
n 46.500000 38.500000 1.500000 1.500000 0 360 ellipse cp s
/Helvetica-latin1 ff 1.185333 scf sf
(B') dup sw 2 div 46.500000 ex sub 38.630083 m
 gs 1 -1 sc sh gr
/Helvetica-latin1 ff 1.185333 scf sf
0.100000 slw
[] 0 sd
[] 0 sd
0 slc
0 slj
0.100000 slw
0 slc
0 slj
[] 0 sd
1.000000 1.000000 1.000000 srgb
n 46.500000 31.500000 1.500000 1.500000 0 360 ellipse f
0.000000 0.000000 0.000000 srgb
n 46.500000 31.500000 1.500000 1.500000 0 360 ellipse cp s
0 slc
0 slj
[] 0 sd
n 46.500000 31.500000 1.500000 1.500000 0 360 ellipse cp s
/Helvetica-latin1 ff 1.185333 scf sf
(D') dup sw 2 div 46.500000 ex sub 31.630083 m
 gs 1 -1 sc sh gr
0.100000 slw
[] 0 sd
[] 0 sd
0 slc
0 slj
0.100000 slw
0 slc
0 slj
[] 0 sd
1.000000 1.000000 1.000000 srgb
n 34.500000 31.500000 1.500000 1.500000 0 360 ellipse f
0.000000 0.000000 0.000000 srgb
n 34.500000 31.500000 1.500000 1.500000 0 360 ellipse cp s
0 slc
0 slj
[] 0 sd
n 34.500000 31.500000 1.500000 1.500000 0 360 ellipse cp s
/Helvetica-latin1 ff 1.185333 scf sf
(C') dup sw 2 div 34.500000 ex sub 31.630083 m
 gs 1 -1 sc sh gr
0.100000 slw
[] 0 sd
[] 0 sd
0 slc
n 23.049622 31.500000 m 32.950378 31.500000 l s
0.100000 slw
[] 0 sd
[] 0 sd
0 slc
n 36.050171 31.500000 m 44.949829 31.500000 l s
0.100000 slw
[] 0 sd
[] 0 sd
0 slc
n 46.500000 33.049194 m 46.500000 36.950806 l s
0.100000 slw
[] 0 sd
[] 0 sd
0 slc
n 35.837402 32.280151 m 45.162598 37.719849 l s
0.100000 slw
[] 0 sd
[] 0 sd
0 slc
0 slj
0.100000 slw
0 slc
0 slj
[] 0 sd
1.000000 1.000000 1.000000 srgb
n 34.500000 47.500000 1.500000 1.500000 0 360 ellipse f
0.000000 0.000000 0.000000 srgb
n 34.500000 47.500000 1.500000 1.500000 0 360 ellipse cp s
0 slc
0 slj
[] 0 sd
n 34.500000 47.500000 1.500000 1.500000 0 360 ellipse cp s
/Helvetica-latin1 ff 1.185333 scf sf
(A'') dup sw 2 div 34.500000 ex sub 47.630083 m
 gs 1 -1 sc sh gr
/Helvetica-latin1 ff 1.185333 scf sf
(Level 0) 6.000000 9.682500 m
 gs 1 -1 sc sh gr
(Level 1) 6.000000 33.682500 m
 gs 1 -1 sc sh gr
(Level 2) 6.000000 47.682500 m
 gs 1 -1 sc sh gr
showpage
