"runTime","pathLength","statesExpanded","maxQueueSize"
0.0121124,945,17477,563
0.0119887,867,17946,705
0.0272641,1000,27517,862
0.0452049,1485,36703,671
0.00511261,498,12518,404
0.00224277,263,6832,349
0.0633207,1924,40246,945
0.0374144,1346,32454,972
0.0305476,1398,25950,974
0.00530009,511,10962,506
0.0532188,1733,39112,648
0.00688514,528,13925,694
0.000899041,185,2966,261
0.0262679,1129,29395,702
0.0166406,819,22999,840
0.00660238,528,12386,553
0.00253832,331,6322,438
0.0551962,1810,42286,550
0.00317723,287,10481,555
0.00484499,479,9535,557
0.00581965,556,8712,918
0.0212505,1343,22764,537
0.00181449,288,4963,557
0.00331833,431,6363,756
0.0342625,1722,25758,811
0.00321486,444,8053,310
0.0104163,715,17380,661
0.0054715,478,8765,710
0.0433594,1724,31998,752
0.0196749,923,23551,753
0.00190906,273,5106,489
0.00390069,591,9156,341
0.00214988,191,7429,430
0.0150016,676,21072,784
0.0501845,1553,41642,654
0.00754272,535,15738,509
0.00729904,561,15348,811
0.0145269,1045,16929,612
0.00288829,259,10051,392
0.00236874,387,5036,606
0.00121769,98,4858,122
0.0329285,1815,32081,636
0.0141619,859,22400,590
0.0127987,870,16948,645
0.0641571,2292,36687,795
0.0028554,291,9365,448
0.0221621,1443,27399,476
0.0146881,947,22857,462
0.0229771,1528,24327,587
0.0022055,167,8187,396
0.0435594,1960,34610,605
0.0493469,2178,33979,702
0.0021908,306,7314,364
0.0104461,758,17576,563
0.00619867,566,13909,360
0.00546446,587,12210,401
0.0119866,819,18234,540
0.0181946,1021,24209,432
0.0423412,2143,31066,592
0.00551723,477,9667,651
0.00447963,500,9979,652
0.0342804,1188,39801,571
0.0170658,1303,19318,555
0.0150612,884,20117,710
0.047706,1975,37089,621
0.0124327,821,18860,545
0.01413,902,17574,805
0.00343649,513,7339,547
0.0203634,1387,24890,862
0.00064965,162,2669,316
0.0104199,1002,14160,590
0.0015371,210,5274,410
0.0555903,2241,35146,459
0.00909108,662,16391,744
0.0438216,1810,39117,476
0.00184212,134,8318,224
0.0266023,1646,25706,760
0.0122748,882,20744,511
0.0387936,1872,31160,463
0.00262286,359,4589,1035
0.0183191,1254,20177,667
0.00158025,211,5656,331
0.00273456,402,8118,376
0.0309176,1489,24814,719
0.00576522,445,11079,683
0.0123597,1117,18298,477
0.0132512,715,20782,920
0.0156637,1038,20340,669
0.0160351,839,21675,865
0.020739,1416,23900,719
0.0183636,808,20983,786
0.00493979,433,10935,698
0.00986434,612,15927,594
0.0106966,932,16657,437
0.00403203,386,9970,693
0.00516527,512,11888,422
0.00224434,282,8053,296
0.00917801,547,14903,622
0.00299054,307,9201,453
0.0299334,1205,28918,700
